<?xml version="1.0" encoding="UTF-8" standalone="no"?>
<!-- Created with Inkscape (http://www.inkscape.org/) -->

<svg
   inkscape:version="1.2.2 (1:1.2.2+202212051552+b0a8486541)"
   sodipodi:docname="satin-inkstitch.svg"
   id="svg5"
   version="1.1"
   viewBox="0 0 190 140"
   height="140mm"
   width="190mm"
   xmlns:inkscape="http://www.inkscape.org/namespaces/inkscape"
   xmlns:sodipodi="http://sodipodi.sourceforge.net/DTD/sodipodi-0.dtd"
   xmlns:xlink="http://www.w3.org/1999/xlink"
   xmlns="http://www.w3.org/2000/svg"
   xmlns:svg="http://www.w3.org/2000/svg"
   xmlns:inkstitch="http://inkstitch.org/namespace">
  <metadata
     id="metadata250">
    <inkstitch:min_stitch_len_mm>0</inkstitch:min_stitch_len_mm>
    <inkstitch:collapse_len_mm>3</inkstitch:collapse_len_mm>
    <inkstitch:inkstitch_svg_version>1</inkstitch:inkstitch_svg_version>
  </metadata>
  <sodipodi:namedview
     id="namedview7"
     pagecolor="#ffffff"
     bordercolor="#000000"
     borderopacity="0.25"
     inkscape:showpageshadow="2"
     inkscape:pageopacity="0.0"
     inkscape:pagecheckerboard="0"
     inkscape:deskcolor="#d1d1d1"
     inkscape:document-units="mm"
     showgrid="true"
     inkscape:zoom="1.4142136"
     inkscape:cx="331.98663"
     inkscape:cy="280.36784"
     inkscape:window-width="1920"
     inkscape:window-height="1004"
     inkscape:window-x="0"
     inkscape:window-y="0"
     inkscape:window-maximized="1"
     inkscape:current-layer="layer1">
    <inkscape:grid
       type="xygrid"
       id="grid186"
       units="mm"
       spacingx="4.9999999"
       spacingy="4.9999999"
       empspacing="10"
       originx="0"
       originy="0" />
  </sodipodi:namedview>
  <defs
     id="defs2">
    <inkscape:path-effect
       id="inkstitch-effect-normal-rect683-3"
       effect="skeletal"
       is_visible="true"
       lpeversion="1"
       pattern="M 0 0.4 L 7.5 0.4 L 15 0.4M 0 -4.4 L 7.5 -4.4 L 15 -4.4 M 7.5 0.5 L 7.5 -4.6000000000000005"
       copytype="repeated"
       prop_scale="1"
       scale_y_rel="false"
       spacing="0"
       normal_offset="0"
       tang_offset="0"
       prop_units="false"
       vertical_pattern="false"
       hide_knot="false"
       fuse_tolerance="0.02"
       pattern-nodetypes="cc" />
    <inkscape:path-effect
       id="inkstitch-effect-pearl-path39840"
       effect="skeletal"
       is_visible="true"
       lpeversion="1"
       pattern="M 0 0 C 0 0.825 2.7 1.5 6 1.5 C 9.3 1.5 12 0.825 12 0M 0 -2 C 0 -2.825 2.7 -3.5 6 -3.5 C 9.3 -3.5 12 -2.825 12 -2 M 6.0 1.6 L 6.0 -3.7"
       copytype="repeated"
       prop_scale="1"
       scale_y_rel="false"
       spacing="0"
       normal_offset="0"
       tang_offset="0"
       prop_units="false"
       vertical_pattern="false"
       hide_knot="false"
       fuse_tolerance="0.02"
       pattern-nodetypes="csc" />
    <inkscape:path-effect
       id="inkstitch-effect-diamond-path597"
       effect="skeletal"
       is_visible="true"
       lpeversion="1"
       pattern="M 0 0 L 6 1.5 L 12 0M 0 -4 L 6 -5.5 L 12 -4 M 6.0 1.6 L 6.0 -5.7"
       copytype="repeated"
       prop_scale="1"
       scale_y_rel="false"
       spacing="0"
       normal_offset="0"
       tang_offset="0"
       prop_units="false"
       vertical_pattern="false"
       hide_knot="false"
       fuse_tolerance="0.02"
       pattern-nodetypes="ccc" />
    <inkscape:path-effect
       id="inkstitch-effect-square-path597-3"
       effect="skeletal"
       is_visible="true"
       lpeversion="1"
       pattern="M 0 0 L 2.7907 0 L 5.5814 0 L 6.55814 1.5 L 11.1628 1.5 L 12 0M 0 -4 L 2.7907 -4 L 5.5814 -4 L 6.55814 -5.5 L 11.1628 -5.5 L 12 -4 M 2.7907 0.1 L 2.7907 -4.2"
       copytype="repeated"
       prop_scale="1"
       scale_y_rel="false"
       spacing="0"
       normal_offset="0"
       tang_offset="0"
       prop_units="false"
       vertical_pattern="false"
       hide_knot="false"
       fuse_tolerance="0.02"
       pattern-nodetypes="ccccc" />
    <inkscape:path-effect
       id="inkstitch-effect-diamond-path43662"
       effect="skeletal"
       is_visible="true"
       lpeversion="1"
       pattern="M 0 0 L 7.5 1.5 L 15 0M 0 -2 L 7.5 -3.5 L 15 -2 M 7.5 1.6 L 7.5 -3.7"
       copytype="repeated_stretched"
       prop_scale="1"
       scale_y_rel="false"
       spacing="0"
       normal_offset="0"
       tang_offset="0"
       prop_units="false"
       vertical_pattern="false"
       hide_knot="false"
       fuse_tolerance="0.02"
       pattern-nodetypes="ccc" />
    <inkscape:path-effect
       id="inkstitch-effect-square-path44458"
       effect="skeletal"
       is_visible="true"
       lpeversion="1"
       pattern="M 0 0 L 3.48838 0 L 6.97676 0 L 8.19769 1 L 13.9535 1 L 15 0M 0 -2 L 3.48838 -2 L 6.97676 -2 L 8.19769 -3 L 13.9535 -3 L 15 -2 M 3.48838 0.1 L 3.48838 -2.2"
       copytype="repeated_stretched"
       prop_scale="1"
       scale_y_rel="false"
       spacing="0"
       normal_offset="0"
       tang_offset="0"
       prop_units="false"
       vertical_pattern="false"
       hide_knot="false"
       fuse_tolerance="0.02"
       pattern-nodetypes="ccccc" />
    <inkscape:path-effect
       id="inkstitch-effect-triangle-path597-3-6"
       effect="skeletal"
       is_visible="true"
       lpeversion="1"
       pattern="M 0 0 L 7.5 0.75 L 14.625 1.5 L 15 0M 0 -2 L 7.5 -2.75 L 14.625 -3.5 L 15 -2 M 7.5 0.85 L 7.5 -2.95"
       copytype="repeated_stretched"
       prop_scale="1"
       scale_y_rel="false"
       spacing="0"
       normal_offset="0"
       tang_offset="0"
       prop_units="false"
       vertical_pattern="false"
       hide_knot="false"
       fuse_tolerance="0.02"
       pattern-nodetypes="cccc" />
    <inkscape:path-effect
       id="inkstitch-effect-wave-path597-3-6-1"
       effect="skeletal"
       is_visible="true"
       lpeversion="1"
       pattern="M 0 0 C 3.75 0.075 5.4375 1.5 7.5 1.5 C 9.5625 1.5 10.875 0.075 15 0M 0 -2 C 3.75 -2.075 5.4375 -3.5 7.5 -3.5 C 9.5625 -3.5 10.875 -2.075 15 -2 M 7.5 1.6 L 7.5 -3.7"
       copytype="repeated_stretched"
       prop_scale="1"
       scale_y_rel="false"
       spacing="0"
       normal_offset="0"
       tang_offset="0"
       prop_units="false"
       vertical_pattern="false"
       hide_knot="false"
       fuse_tolerance="0.02"
       pattern-nodetypes="cac" />
    <inkscape:path-effect
       id="inkstitch-effect-arch-path49463"
       effect="skeletal"
       is_visible="true"
       lpeversion="1"
       pattern="M 0 1.875 C 0 1.875 0.7 0.375 4 0.375 C 7 0.375 8 1.875 8 1.875M 0 -0.125 C 0 -0.125 0.7 -1.625 4 -1.625 C 7 -1.625 8 -0.125 8 -0.125 M 4.0 0.475 L 4.0 -1.825"
       copytype="repeated_stretched"
       prop_scale="1"
       scale_y_rel="false"
       spacing="0"
       normal_offset="0"
       tang_offset="0"
       prop_units="false"
       vertical_pattern="false"
       hide_knot="false"
       fuse_tolerance="0.02"
       pattern-nodetypes="czcczc" />
    <symbol
       id="inkstitch_trim">
      <title
         id="inkstitch_title9282">Trim the thread after sewing this object.</title>
      <path
         id="inkstitch_circle13405"
         d="m 9.2465284,-8.6e-6 c 1.8e-6,2.452339 -0.9741847,4.804237 -2.7082493,6.538304 C 4.8042146,8.2723614 2.4523174,9.2465504 -2.1625959e-5,9.2465514 -2.4523623,9.2465534 -4.8042621,8.2723654 -6.5383288,6.5382984 -8.2723956,4.8042314 -9.2465834,2.4523324 -9.2465816,-8.6e-6 c 6e-7,-2.452339 0.9741895,-4.804237 2.708256,-6.538301 1.7340665,-1.734065 4.0859648,-2.708252 6.538303974041,-2.70825 C 5.1067066,-9.2465576 9.2465271,-5.1067366 9.2465284,-8.6e-6 c 0,0 0,0 0,0"
         style="opacity:1;vector-effect:none;fill:#fafafa;fill-opacity:1;fill-rule:evenodd;stroke:#003399;stroke-width:1.06500006;stroke-linecap:round;stroke-linejoin:miter;stroke-miterlimit:4;stroke-dasharray:3.19500017, 3.19500017;stroke-dashoffset:0;stroke-opacity:1"
         inkscape:connector-curvature="0" />
      <path
         style="color:#000000;font-style:normal;font-variant:normal;font-weight:normal;font-stretch:normal;font-size:medium;line-height:normal;font-family:sans-serif;font-variant-ligatures:normal;font-variant-position:normal;font-variant-caps:normal;font-variant-numeric:normal;font-variant-alternates:normal;font-feature-settings:normal;text-indent:0;text-align:start;text-decoration:none;text-decoration-line:none;text-decoration-style:solid;text-decoration-color:#000000;letter-spacing:normal;word-spacing:normal;text-transform:none;writing-mode:lr-tb;direction:ltr;text-orientation:mixed;dominant-baseline:auto;baseline-shift:baseline;text-anchor:start;white-space:normal;shape-padding:0;clip-rule:nonzero;display:inline;overflow:visible;visibility:visible;opacity:1;isolation:auto;mix-blend-mode:normal;color-interpolation:sRGB;color-interpolation-filters:linearRGB;solid-color:#000000;solid-opacity:1;vector-effect:none;fill:#050505;fill-opacity:1;fill-rule:evenodd;stroke:none;stroke-width:1.41421342;stroke-linecap:butt;stroke-linejoin:miter;stroke-miterlimit:4;stroke-dasharray:none;stroke-dashoffset:0;stroke-opacity:1;color-rendering:auto;image-rendering:auto;shape-rendering:auto;text-rendering:auto;enable-background:accumulate"
         d="m -3.0000256,-5.9834096 c -1.30575,0 -2.375,1.06924 -2.375,2.375 0,1.30575 1.06925,2.375 2.375,2.375 0.58687,0 1.11944,-0.22369 1.53516,-0.58007 0,0 0.61717997,1.62109 0.61717997,1.62109 0,0 -2.29881997,6.01758 -2.29881997,6.01758 0.98655,-0.12511 1.23728,-0.26171 1.67382,-0.97461 0,0 1.33007997,-3.18945 1.33007997,-3.18945 0,0 1.23633003,3.25 1.23633003,3.25 0.23227,0.77906 0.84315,0.79218 1.57813,1.07226 0,0 -2.05469003,-6.14258 -2.05469003,-6.14258 0,0 0.73047003,-1.75 0.73047003,-1.75 0.42849,0.41682 1.01136,0.67578 1.65234,0.67578 1.30575,0 2.375,-1.06925 2.375,-2.375 0,-1.30576 -1.06925,-2.375 -2.375,-2.375 -1.06233,0 -1.95701,0.71265 -2.25781003,1.67969 0,0 -0.0117,-0.0156 -0.0117,-0.0156 0,0 -0.80274,2.10156 -0.80274,2.10156 0,0 -0.59179,-1.76562 -0.59179,-1.76562 -0.18242,-1.12808 -1.15864997,-2 -2.33593997,-2 0,0 -2e-5,-3e-5 -2e-5,-3e-5 m 0,1 c 0.76531,0 1.375,0.60968 1.375,1.375 0,0.76531 -0.60969,1.375 -1.375,1.375 -0.76531,0 -1.375,-0.60969 -1.375,-1.375 0,-0.76532 0.60969,-1.375 1.375,-1.375 0,0 0,0 0,0 m 6,0 c 0.76531,0 1.375,0.60968 1.375,1.375 0,0.76531 -0.60969,1.375 -1.375,1.375 -0.76531,0 -1.375,-0.60969 -1.375,-1.375 0,-0.76532 0.60969,-1.375 1.375,-1.375 0,0 0,0 0,0"
         id="inkstitch_path13416"
         inkscape:connector-curvature="0" />
    </symbol>
    <inkscape:path-effect
       id="inkstitch-effect-pearl-path2022-6"
       effect="skeletal"
       is_visible="true"
       lpeversion="1"
       pattern="M 0 0 C 0 0.55 3.375 1 7.5 1 C 11.625 1 15 0.55 15 0M 0 -2 C 0 -2.55 3.375 -3 7.5 -3 C 11.625 -3 15 -2.55 15 -2 M 7.5 1.1 L 7.5 -3.2"
       copytype="repeated_stretched"
       prop_scale="1"
       scale_y_rel="false"
       spacing="0"
       normal_offset="0"
       tang_offset="0"
       prop_units="false"
       vertical_pattern="false"
       hide_knot="false"
       fuse_tolerance="0.02"
       pattern-nodetypes="csc" />
    <inkscape:path-effect
       id="inkstitch-effect-pearl-path2022-6-2"
       effect="skeletal"
       is_visible="true"
       lpeversion="1"
       pattern="M 0 0 C 0 1.1 3.375 2 7.5 2 C 11.625 2 15 1.1 15 0M 0 -4 C 0 -5.1 3.375 -6 7.5 -6 C 11.625 -6 15 -5.1 15 -4 M 7.5 2.1 L 7.5 -6.2"
       copytype="repeated_stretched"
       prop_scale="1"
       scale_y_rel="false"
       spacing="0"
       normal_offset="0"
       tang_offset="0"
       prop_units="false"
       vertical_pattern="false"
       hide_knot="false"
       fuse_tolerance="0.02"
       pattern-nodetypes="csc" />
    <inkscape:path-effect
       id="inkstitch-effect-pearl-path2022-6-2-6"
       effect="skeletal"
       is_visible="true"
       lpeversion="1"
       pattern="M 0 0 C 0 1.65 3.375 3 7.5 3 C 11.625 3 15 1.65 15 0M 0 -2 C 0 -3.65 3.375 -5 7.5 -5 C 11.625 -5 15 -3.65 15 -2 M 7.5 3.1 L 7.5 -5.2"
       copytype="repeated_stretched"
       prop_scale="1"
       scale_y_rel="false"
       spacing="0"
       normal_offset="0"
       tang_offset="0"
       prop_units="false"
       vertical_pattern="false"
       hide_knot="false"
       fuse_tolerance="0.02"
       pattern-nodetypes="csc" />
  </defs>
  <g
     inkscape:label="Calque 1"
     inkscape:groupmode="layer"
     id="layer1">
    <path
       style="fill:none;stroke:#000000;stroke-width:0.200025"
       inkscape:path-effect="#inkstitch-effect-diamond-path43662"
       inkscape:original-d="M 24.6671 51.4478 a 19.9145 19.9145 0 1 0 19.9145 19.9145 a 19.9145 19.9145 0 0 0 -19.9145 -19.9145 z"
       inkstitch:satin_column="true"
       class="UnoptimicedTransforms"
       id="path43662"
       d="m 24.6671,50.3978 c -2.757997,-0.492993 -5.691452,-0.391159 -8.576907,0.290544 -2.49476,1.599765 -4.592192,3.635541 -6.192941,5.906617 -2.2994051,1.55879 -4.3687203,3.620573 -5.9844882,6.170391 -6.1e-6,2.6e-5 -1.23e-5,5.3e-5 -1.85e-5,7.9e-5 -0.6603899,2.945524 -0.6549681,5.866613 -0.1311839,8.594714 -0.4738923,2.7378 -0.4301811,5.660413 0.2027691,8.555655 1.5583284,2.522238 3.560581,4.668404 5.8593164,6.269953 6.17e-5,4.3e-5 1.234e-4,8.5e-5 1.851e-4,1.28e-4 1.601613,2.298773 3.747866,4.301046 6.270202,5.859364 2.895255,0.632891 5.817869,0.676545 8.555659,0.202598 2.727966,0.5237 5.64889,0.529088 8.594245,-0.131262 1.83e-4,-4.4e-5 3.66e-4,-8.7e-5 5.49e-4,-1.3e-4 2.549777,-1.615821 4.611516,-3.685179 6.17026,-5.984616 2.271043,-1.600794 4.306778,-3.698266 5.906492,-6.193059 0.681608,-2.885316 0.783407,-5.818615 0.290441,-8.576476 -2.7e-5,-1.48e-4 -5.5e-5,-2.96e-4 -8.3e-5,-4.44e-4 C 46.115756,68.595854 45.96651,65.679073 45.240561,62.82191 43.610921,60.368459 41.552115,58.327082 39.27454,56.754482 37.701886,54.476943 35.660461,52.418186 33.206968,50.788607 30.349819,50.062729 27.433064,49.913559 24.6671,50.3978 Z m 0,2 c -2.469955,0.49366 -4.710884,1.520847 -6.62343,2.88085 -2.303242,0.441941 -4.627429,1.360555 -6.749105,2.740882 -1.4230194,2.092614 -2.3769332,4.379248 -2.7623855,6.659192 -1.17e-5,1.7e-5 -2.34e-5,3.4e-5 -3.51e-5,5.1e-5 -1.3395598,1.884715 -2.2818445,4.176116 -2.7552205,6.662023 0.524301,2.476255 1.5182872,4.769214 2.8345053,6.710318 0.390788,2.313979 1.249074,4.624824 2.6464878,6.720367 3.7e-5,5.6e-5 7.4e-5,1.12e-4 1.11e-4,1.69e-4 2.09562,1.39743 4.406547,2.255703 6.720598,2.646456 1.941132,1.316179 4.234109,2.310121 6.710374,2.834372 2.485763,-0.473401 4.77703,-1.415658 6.661656,-2.75515 1.18e-4,-8.2e-5 2.37e-4,-1.64e-4 3.55e-4,-2.45e-4 2.279934,-0.385509 4.56655,-1.339472 6.659135,-2.762534 1.380286,-2.121705 2.298854,-4.44591 2.740749,-6.749159 1.35989,-1.91247 2.386992,-4.15328 2.880625,-6.623092 2.7e-5,-1.32e-4 5.5e-5,-2.63e-4 8.2e-5,-3.95e-4 -0.485788,-2.462699 -1.525752,-4.65541 -2.909495,-6.521433 -0.480053,-2.269736 -1.451423,-4.565239 -2.85741,-6.676115 C 35.753789,56.758419 33.458265,55.787103 31.188521,55.30711 29.322497,53.923416 27.129789,52.883514 24.6671,52.3978 Z m -8.615977,-1.801262 2.070686,4.865724 M 3.8203755,62.727085 8.7169561,64.755259 M 3.8917886,79.953094 8.7965132,77.976528 m 7.2802288,14.16126 1.976467,-4.904766 M 33.302757,92.208838 31.274472,87.31231 M 45.433045,79.977843 40.567281,77.907257 M 45.33093,62.781538 40.541368,64.921214 M 33.247337,50.698237 31.107784,55.48785" />
    <path
       style="fill:none;stroke:#000000;stroke-width:0.200025"
       inkscape:path-effect="#inkstitch-effect-square-path44458"
       inkscape:original-d="M 71.4423 51.4478 a 19.9145 19.9145 0 1 0 19.9145 19.9145 a 19.9145 19.9145 0 0 0 -19.9145 -19.9145 z"
       inkstitch:satin_column="true"
       class="UnoptimicedTransforms"
       id="path44458"
       d="m 71.4423,50.4478 c -1.279443,0.0031 -2.550257,0.1325 -3.796203,0.377339 -1.245945,0.244839 -2.467022,0.605119 -3.646988,1.069992 -0.535029,-0.146561 -1.08429,-0.272972 -1.645992,-0.378057 -1.983568,0.925394 -3.831619,2.137354 -5.471196,3.587139 -0.07788,0.513072 -0.135941,1.022359 -0.174536,1.526362 -0.904948,0.888593 -1.731432,1.856822 -2.463212,2.893837 -0.731779,1.037014 -1.368854,2.142814 -1.894983,3.306548 -0.209062,0.116044 -0.417517,0.237209 -0.625225,0.363588 -0.275256,0.169155 -0.548224,0.347116 -0.818573,0.533655 -0.758256,2.081125 -1.177565,4.258822 -1.275061,6.447043 0.314325,0.412296 0.640271,0.807179 0.976314,1.184416 0.01161,1.268219 0.135015,2.535606 0.366401,3.783006 0.231385,1.2474 0.570752,2.474813 1.014284,3.663083 -0.156497,0.532072 -0.292904,1.078383 -0.407447,1.637725 0.892011,2.000073 2.078314,3.872473 3.541777,5.531152 0.514759,0.08082 1.026079,0.139519 1.532435,0.175877 9.7e-5,7e-6 1.95e-4,1.3e-5 2.92e-4,2e-5 0.906902,0.902495 1.897001,1.709597 2.951143,2.41749 1.054142,0.707894 2.172326,1.31658 3.335397,1.822243 0.274682,0.48196 0.573676,0.959737 0.896545,1.431232 2.056934,0.74827 4.220675,1.198091 6.405176,1.33233 0.417873,-0.307716 0.819049,-0.626776 1.202728,-0.955861 1.268219,0.01158 2.537269,-0.08863 3.787993,-0.304449 1.250724,-0.215821 2.483123,-0.547253 3.678041,-0.998108 0.22965,0.06571 0.462487,0.12737 0.698475,0.184828 0.314479,0.07509 0.633574,0.142333 0.95689,0.201642 2.007739,-0.935398 3.844114,-2.178749 5.460385,-3.657097 0.06928,-0.5138 0.118036,-1.023505 0.147172,-1.527872 0.888575,-0.904966 1.697513,-1.888394 2.415963,-2.934043 0.718451,-1.045649 1.346414,-2.153519 1.87304,-3.307369 0.486895,-0.265564 0.969652,-0.555404 1.446163,-0.869919 0.783544,-2.045004 1.268702,-4.207835 1.406733,-6.415537 -0.306787,-0.421054 -0.626773,-0.824047 -0.959048,-1.207735 -1.28e-4,-1.47e-4 -2.57e-4,-2.95e-4 -3.85e-4,-4.42e-4 -0.007,-1.282984 -0.146003,-2.549564 -0.403517,-3.786301 -0.257513,-1.236738 -0.633556,-2.443633 -1.11469,-3.607249 0.136182,-0.533556 0.251872,-1.081324 0.346289,-1.641369 -0.952713,-1.954982 -2.188788,-3.769274 -3.647862,-5.382511 -0.511553,-0.07029 -1.019514,-0.121649 -1.522524,-0.1547 C 85.121027,55.896283 84.153377,55.077024 83.124979,54.34539 82.096582,53.613755 81.007438,52.969744 79.870985,52.426796 79.615904,51.939044 79.336289,51.45528 79.03136,50.977436 77.011689,50.165713 74.865967,49.651991 72.654557,49.496635 72.231695,49.799294 71.827156,50.11656 71.4423,50.4478 Z m 0,2 c -1.14547,-0.0031 -2.288277,0.111154 -3.412182,0.331925 -1.123904,0.220771 -2.228905,0.548053 -3.298763,0.970997 -0.252408,0.457296 -0.481242,0.918972 -0.686902,1.382924 -1.633992,0.766404 -3.164952,1.77075 -4.519923,2.964297 -0.466573,-0.03247 -0.940265,-0.04704 -1.419832,-0.0428 -0.822283,0.805587 -1.572068,1.68188 -2.233115,2.618029 -0.661047,0.936148 -1.233355,1.932152 -1.700683,2.97716 0.06003,0.215299 0.12431,0.427884 0.192813,0.637589 0.08968,0.278878 0.186252,0.552263 0.28932,0.820075 -0.621918,1.66754 -0.962237,3.443073 -1.038093,5.24055 -0.345842,0.312368 -0.683926,0.643223 -1.012932,0.991764 0.01185,1.15107 0.124959,2.303406 0.335517,3.437851 0.210559,1.134445 0.518566,2.251001 0.920206,3.330511 0.452308,0.261648 0.908754,0.499725 1.36724,0.713796 0.729437,1.646011 1.695819,3.175769 2.88201,4.503227 -0.0331,0.462009 -0.04634,0.932383 -0.0384,1.410321 1e-6,9.2e-5 2e-6,1.84e-4 3e-6,2.76e-4 0.80779,0.812156 1.696679,1.539451 2.647514,2.178071 0.950834,0.63862 1.963614,1.188564 3.019183,1.646018 0.50184,-0.14487 0.99011,-0.309506 1.463601,-0.492138 1.697334,0.613512 3.490055,0.985924 5.292115,1.100102 0.306948,0.352882 0.631588,0.698139 0.973687,1.034247 1.15107,0.01183 2.300872,-0.07761 3.430252,-0.272129 1.129379,-0.194516 2.238336,-0.494109 3.307715,-0.902594 0.109679,-0.194487 0.214441,-0.390061 0.314193,-0.586582 0.133898,-0.26081 0.259027,-0.52261 0.375608,-0.785064 1.618899,-0.739383 3.115057,-1.754234 4.439735,-2.971597 0.465429,0.02368 0.938444,0.0288 1.417545,0.01499 0.805571,-0.8223 1.540436,-1.717095 2.193743,-2.668146 0.653306,-0.95105 1.225056,-1.958356 1.704397,-3.005675 -0.134808,-0.504843 -0.28921,-0.995946 -0.462032,-1.471514 0.648136,-1.679672 1.04651,-3.444686 1.14638,-5.222086 0.350025,-0.303224 0.691923,-0.626401 1.024198,-0.969898 1.28e-4,-1.31e-4 2.57e-4,-2.63e-4 3.85e-4,-3.94e-4 0.007,-1.141923 -0.11066,-2.27483 -0.339419,-3.385285 -0.228759,-1.110454 -0.568659,-2.198456 -1.006261,-3.250566 -0.457738,-0.241946 -0.919827,-0.459983 -1.384333,-0.65489 -0.79199,-1.604082 -1.827112,-3.107705 -3.045001,-4.450506 0.02484,-0.467162 0.03267,-0.941301 0.02286,-1.421055 -0.815947,-0.815927 -1.698689,-1.565057 -2.634789,-2.233952 -0.9361,-0.668894 -1.925558,-1.257553 -2.954937,-1.752539 -0.502958,0.124475 -0.992068,0.268818 -1.465397,0.432248 C 75.900271,53.974847 74.165193,53.562103 72.404659,53.467493 72.10542,53.119387 71.784845,52.779036 71.4423,52.4478 Z m -3.815404,-1.72039 0.441625,2.247774 m -13.905718,6.49179 1.871521,1.321078 m -5.159502,14.372842 2.259151,-0.419179 m 6.416029,13.908983 1.277151,-1.901696 m 14.423138,5.24266 -0.3892,-2.257499 M 88.672636,83.21943 86.778791,81.918334 m 5.271285,-14.36283 -2.226283,0.461224 M 83.182735,54.264376 81.85435,56.127678" />
    <path
       style="fill:none;stroke:#000000;stroke-width:0.200025"
       inkscape:path-effect="#inkstitch-effect-triangle-path597-3-6"
       inkscape:original-d="M 118.218 51.4478 a 19.9145 19.9145 0 1 0 19.9145 19.9145 a 19.9145 19.9145 0 0 0 -19.9145 -19.9145 z"
       inkstitch:satin_column="true"
       class="UnoptimicedTransforms"
       d="m 118.218,50.4478 c -2.7508,-0.243326 -5.56972,0.102137 -8.26435,0.974993 -2.56478,0.817738 -5.02153,2.113157 -7.20386,3.835712 0.23677,0.462965 0.48125,0.920403 0.73329,1.37207 -2.12029,1.7324 -3.944542,3.899838 -5.28031,6.440917 -1.2e-5,2.2e-5 -2.4e-5,4.5e-5 -3.6e-5,6.8e-5 -1.259985,2.417737 -2.037776,5.097162 -2.316443,7.865217 0.497188,0.150437 0.995966,0.291388 1.496054,0.422885 -0.224459,2.729084 0.06766,5.548773 0.893221,8.257789 0.772715,2.578226 2.028584,5.060711 3.784544,7.274391 0.46241,-0.238005 0.91892,-0.484984 1.36925,-0.740905 2.4e-4,-1.38e-4 4.9e-4,-2.75e-4 7.3e-4,-4.12e-4 1.77306,2.117139 4.01061,3.866159 6.53318,5.154378 2.39178,1.235377 5.04494,2.056606 7.8061,2.381755 0.15995,-0.494781 0.31055,-0.991104 0.45171,-1.488699 2.72408,0.274309 5.54644,0.03172 8.28764,-0.820443 1.7e-4,-5.5e-5 3.4e-4,-1.09e-4 5.1e-4,-1.64e-4 2.60056,-0.818643 5.04522,-2.163283 7.19963,-3.923535 -0.24518,-0.457946 -0.4982,-0.910309 -0.75883,-1.356914 2.08851,-1.771012 3.87582,-3.971362 5.20765,-6.470669 1.27672,-2.369458 2.14409,-5.012873 2.46773,-7.819859 -0.495,-0.158588 -0.99217,-0.306671 -1.49131,-0.444075 -5.3e-4,-1.47e-4 -0.001,-2.95e-4 -0.002,-4.42e-4 0.23491,-2.758415 -0.15146,-5.554732 -1.06399,-8.216978 -0.85561,-2.534181 -2.18782,-4.951549 -3.91682,-7.102926 -0.45909,0.242034 -0.91299,0.491351 -1.3615,0.747774 -1.74471,-2.097137 -3.89485,-3.913848 -6.35527,-5.27816 -2.33236,-1.307393 -4.94894,-2.208248 -7.76992,-2.553387 -0.16005,0.493771 -0.30912,0.990369 -0.447,1.489619 z m 0,2 c -2.46275,0.243326 -4.80519,1.024153 -6.89692,2.188207 -1.98226,1.117327 -3.73411,2.578808 -5.14517,4.250077 -0.42589,-0.284343 -0.85779,-0.561395 -1.29551,-0.830937 -1.59324,1.91008 -2.78472,4.080073 -3.44404,6.355705 0,2e-5 -10e-6,4e-5 -2e-5,6.1e-5 -0.63531,2.158103 -0.79559,4.399937 -0.56275,6.572129 -0.4996,0.109579 -0.998315,0.228696 -1.495882,0.357272 0.274893,2.472377 1.018062,4.856151 2.136832,6.971857 1.07439,2.00526 2.48603,3.764447 4.15299,5.124185 -0.28235,0.425979 -0.55671,0.859083 -0.82282,1.299233 -1.4e-4,2.36e-4 -2.8e-4,4.71e-4 -4.3e-4,7.07e-4 1.91352,1.569353 4.12201,2.673602 6.4242,3.329611 2.19174,0.61164 4.46391,0.817018 6.64342,0.633064 0.10009,0.502212 0.20957,1.003513 0.32848,1.503625 2.47706,-0.223983 4.85381,-0.9158 6.92903,-2.05859 1.3e-4,-7e-5 2.6e-4,-1.4e-4 3.9e-4,-2.1e-4 1.97527,-1.076798 3.67387,-2.548701 5.04526,-4.249323 0.43075,0.275795 0.86762,0.544222 1.31037,0.805146 1.5539,-1.942601 2.71404,-4.153663 3.41901,-6.440753 0.65825,-2.17762 0.90402,-4.419707 0.68674,-6.559875 0.5006,-0.101511 1.00058,-0.213697 1.49972,-0.336691 5.3e-4,-1.31e-4 0.001,-2.63e-4 0.002,-3.94e-4 -0.23504,-2.455123 -1.03466,-4.754842 -2.22691,-6.804033 -1.14393,-1.941685 -2.64045,-3.653082 -4.34037,-5.054369 0.27862,-0.429016 0.55038,-0.863719 0.81513,-1.3039 -1.93051,-1.578006 -4.10728,-2.784742 -6.35835,-3.525084 -2.14355,-0.692029 -4.34997,-0.961385 -6.47007,-0.728244 -0.0999,-0.499666 -0.2112,-0.999227 -0.33393,-1.498476 z m -8.30342,-1.116813 1.48464,3.488632 m -13.288838,8.213605 3.510758,1.454163 m -3.438116,15.167357 3.516596,-1.41716 m 8.22636,13.159862 1.41709,-3.516625 m 15.20443,3.588919 -1.45424,-3.510719 m 13.15623,-8.293719 -3.48866,-1.484572 m 3.39805,-15.076222 -3.43403,1.534108 m -8.24956,-13.217418 -1.53402,3.434062"
       id="path48659" />
    <path
       style="fill:none;stroke:#000000;stroke-width:0.200025"
       inkscape:path-effect="#inkstitch-effect-arch-path49463"
       inkscape:original-d="M 164.993 51.4478 a 19.9145 19.9145 0 1 0 19.9145 19.9145 a 19.9145 19.9145 0 0 0 -19.9145 -19.9145 z"
       inkstitch:satin_column="true"
       class="UnoptimicedTransforms"
       id="path49463"
       d="m 164.993,49.5978 c 0,0 -0.88285,1.227669 -4.20062,1.974093 -3.01054,0.677304 -4.62163,-0.01292 -4.62163,-0.01292 0,0 -0.26441,1.485862 -3.03363,3.488783 -2.5047,1.811597 -4.26101,1.79222 -4.26101,1.79222 0,0 0.31278,1.463999 -1.42017,4.399512 -0.58263,0.986934 -1.09887,1.673737 -1.59087,2.199609 0,0 0,0 0,0 -0.85658,0.921823 -1.5638,1.21006 -1.5638,1.21006 0,0 0.90713,1.203844 0.59205,4.591836 -0.28597,3.074979 -1.45027,4.388554 -1.45027,4.388554 0,0 1.32925,0.715649 2.3655,3.972564 0.93623,2.942512 0.37635,4.606879 0.37635,4.606879 0,0 1.48253,0.163185 3.75165,2.709807 0.25569,0.286958 0.48203,0.556211 0.68545,0.814508 1.45599,1.84108 1.60492,3.221744 1.60492,3.221744 0,0 1.41925,-0.503162 4.54543,0.850284 2.8365,1.228036 3.71725,2.748276 3.71725,2.748276 0,0 1.0966,-1.036526 4.51275,-1.004139 3.08332,0.02923 4.49737,1.071632 4.49737,1.071632 0,0 0.54279,-1.255884 3.2529,-2.525831 0.1541,-0.07256 0.3147,-0.146249 0.48332,-0.221968 2.81744,-1.265221 4.5328,-0.947146 4.5328,-0.947146 0,0 -0.0485,-1.505387 2.2151,-4.057014 2.05243,-2.313597 3.77303,-2.672195 3.77303,-2.672195 0,0 -0.63709,-1.365563 0.45526,-4.599817 0.98523,-2.917069 2.40931,-3.95078 2.40931,-3.95078 0,0 -0.71903,-0.570994 -1.13399,-2.284047 0,0 0,0 0,0 -0.14284,-0.579447 -0.25526,-1.247445 -0.35944,-2.11196 -0.36659,-3.041832 0.4319,-4.576193 0.4319,-4.576193 0,0 -1.44306,-0.391847 -3.20134,-3.28987 -1.59794,-2.633728 -1.41686,-4.378305 -1.41686,-4.378305 0,0 -1.4955,0.21307 -4.22558,-1.830296 -2.46409,-1.844291 -2.95425,-3.51931 -2.95425,-3.51931 0,0 -1.29878,0.721754 -4.5887,-0.05936 -3.06336,-0.727328 -4.18021,-1.99921 -4.18018,-1.99921 z m 0,2 c 0,0 -0.79308,1.248252 -3.76329,1.917513 -2.7046,0.609416 -4.23136,-0.139954 -4.23136,-0.139954 0,0 -0.18438,1.479937 -2.69043,3.291306 -2.26453,1.636802 -3.96488,1.524292 -3.96488,1.524292 0,0 0.37963,1.4275 -1.1711,4.061136 -0.52041,0.883823 -0.99867,1.492351 -1.4591,1.952341 0,0 0,10e-7 0,10e-7 -0.81424,0.804309 -1.51092,1.048474 -1.51092,1.048474 0,0 0.95572,1.128745 0.67597,4.172297 -0.25462,2.770173 -1.44945,3.985562 -1.44945,3.985562 0,0 1.34843,0.639238 2.28323,3.586117 0.84298,2.657459 0.21098,4.236979 0.21098,4.236979 0,0 1.468,0.08814 3.5032,2.356452 0.22933,0.255597 0.43079,0.496654 0.61036,0.728772 1.26878,1.670089 1.34455,3.012023 1.34455,3.012023 0,0 1.36637,-0.572209 4.18379,0.643384 2.56156,1.105202 3.33908,2.624465 3.33908,2.624465 0,0 1.03091,-1.077872 4.11803,-1.044857 2.77864,0.02972 4.0861,1.114006 4.0861,1.114006 0,0 0.47489,-1.260955 2.87951,-2.420612 0.13738,-0.0647 0.28084,-0.13015 0.43162,-0.197062 2.51624,-1.116584 4.15921,-0.721608 4.15921,-0.721608 0,0 -0.12898,-1.479046 1.91195,-3.784409 1.85275,-2.092783 3.54034,-2.352524 3.54034,-2.352524 0,0 -0.69598,-1.316283 0.29302,-4.233078 0.88878,-2.621217 2.31751,-3.536976 2.31751,-3.536976 0,0 -0.7299,-0.529514 -1.15347,-2.05954 0,0 0,0 0,0 -0.13606,-0.513005 -0.24005,-1.107755 -0.32811,-1.876574 -0.31002,-2.706442 0.53827,-4.149235 0.53827,-4.149235 0,0 -1.44079,-0.306951 -3.03668,-2.921203 -1.45404,-2.381883 -1.19391,-4.067927 -1.19391,-4.067927 0,0 -1.46809,0.28274 -3.94434,-1.578208 -2.22988,-1.675806 -2.61472,-3.325513 -2.61472,-3.325513 0,0 -1.24474,0.771622 -4.19088,0.07615 C 165.97394,52.872237 164.99297,51.5978 164.993,51.5978 Z m -4.22249,-0.123078 0.50294,2.234933 m -8.19487,1.257152 1.34642,1.861749 m -7.05486,4.360297 1.9734,1.1645 m -4.54944,6.878425 2.28225,0.21185 m -1.36295,8.18874 2.18858,-0.696006 m 1.96011,8.048855 1.71269,-1.527749 m 5.15796,6.439403 0.91103,-2.10546 m 7.35762,3.857823 0.0222,-2.294667 m 8.2532,0.609875 -0.9396,-2.096293 m 7.72134,-2.932774 -1.71785,-1.523429 m 5.96589,-5.782903 -2.17203,-0.734058 m 3.0919,-7.656414 -2.26397,0.270694 m -0.51902,-8.176539 -1.95229,1.185663 m -3.71535,-7.422387 -1.37247,1.832499 m -6.20736,-5.42763 -0.52451,2.2112" />
    <path
       style="fill:none;stroke:#000000;stroke-width:0.200025"
       inkscape:path-effect="#inkstitch-effect-pearl-path39840"
       inkscape:original-d="m 131.762,4.88649 h 42.703 a 11.0094,9.45789 0 0 1 11.01,9.45791 v 1.7055 a 11.0094,9.45789 0 0 1 -11.01,9.4579 h -42.703 a 11.0094,9.45789 0 0 1 -11.01,-9.4579 v -1.7055 a 11.0094,9.45789 0 0 1 11.01,-9.45791 z"
       inkstitch:satin_column="true"
       class="UnoptimicedTransforms"
       id="path39840"
       d="m 131.762,5.93649 c 0,0.825 2.7,1.5 6.00001,1.5 3.3,0 6,-0.675 6,-1.5 0,0.825 2.70001,1.5 6.00002,1.5 3.3,0 5.99999,-0.675 5.99998,-1.5 1e-5,0.825 2.70003,1.5 6.00003,1.5 3.30001,0 6,-0.675 5.99998,-1.5 2e-5,0.825 2.70003,1.5 6.00004,1.5 0.23771,0 0.4723,-0.0035 0.703,-0.010311 0,0 0,1e-7 0,1e-7 2.30708,-0.06841 4.41737,0.1678399 4.71443,-0.486794 -0.23987,0.5285981 0.62344,1.3808952 1.52808,2.5128829 0.40691,0.5127688 0.83549,1.0868409 1.2456,1.7283549 0.85962,1.344662 1.1678,2.20684 1.57506,3.163775 0.25058,0.751798 0.56127,1.198311 0.89677,1.198311 -0.21374,0 -0.41742,0.181238 -0.6019,0.507191 -0.51431,0.729514 -1.08729,2.135895 -2.1576,3.581309 -0.33549,0.453067 -0.6771,0.869111 -1.01045,1.249673 0,0 -10e-6,0 -10e-6,0 -1.12243,1.275933 -2.28973,2.211063 -2.05654,2.816185 -0.24524,-0.636391 -2.07167,-0.558409 -4.13344,-0.698119 0,0 0,0 0,0 -0.44775,-0.02689 -0.9146,-0.04115 -1.39413,-0.04115 -3.30001,0 -6.00003,0.675 -6.00004,1.5 1e-5,-0.825 -2.69999,-1.5 -6,-1.5 -3.30001,0 -6.00001,0.675 -6.00002,1.5 10e-6,-0.825 -2.7,-1.5 -6.00001,-1.5 -3.30001,0 -6.00001,0.675 -6,1.5 -1e-5,-0.825 -2.70002,-1.5 -6.00003,-1.5 -2.29563,0 -4.30089,0.326644 -5.30887,0.8032 -0.37916,0.206225 -0.62026,0.425941 -0.63401,0.678142 0.0435,-0.79832 -2.30976,-1.566006 -4.41855,-2.84998 -0.40123,-0.244294 -0.76753,-0.488025 -1.11345,-0.736219 0,0 0,0 0,0 -1.44776,-1.027358 -2.58755,-2.184308 -3.17549,-1.927858 0.56196,-0.245118 0.45242,-1.516399 0.73338,-2.875184 0.0641,-0.530479 0.10915,-1.103755 0.13169,-1.705504 0.005,-0.193282 0.0171,-0.390629 0.0381,-0.59335 0.22992,-2.218468 1.42193,-4.2446905 0.83409,-4.8259304 M 131.762,3.93649 c 0,-0.825 2.7,-1.5 5.99999,-1.5 3.3,0 6,0.675 6,1.5 0,-0.825 2.69999,-1.5 5.99999,-1.5 3.29999,0 6,0.675 6.00001,1.5 -1e-5,-0.825 2.69997,-1.5 5.99997,-1.5 3.3,0 6,0.675 6.00002,1.5 -2e-5,-0.825 2.69997,-1.5 5.99996,-1.5 0.23771,0 0.47231,0.0035 0.703,0.010311 0,0 0,2e-7 0,2e-7 3.76439,0.075226 5.82373,2.0482568 5.53985,2.6738382 0.21319,-0.4698086 1.77654,-0.4891379 3.72291,0.8158809 0.88835,0.5999874 1.7665,1.4575092 2.46425,2.5750937 1.35808,2.1752341 1.48887,4.4267491 1.12982,5.8327881 -0.25058,0.751795 -0.56127,1.198307 -0.89677,1.198307 0.21374,0 0.41742,0.181238 0.6019,0.507191 0.53034,1.15568 0.59799,3.934832 -1.32353,6.553742 -0.57241,0.780159 -1.23558,1.418722 -1.92315,1.915275 0,0 0,0 0,0 -2.3091,1.657395 -4.25998,1.570047 -4.46275,1.043882 0.22947,0.59547 -1.5647,2.20343 -4.85253,2.353853 0,0 0,0 0,0 -0.44774,0.02689 -0.9146,0.04115 -1.39412,0.04115 -3.29999,0 -5.99998,-0.675 -5.99996,-1.5 -2e-5,0.825 -2.70002,1.5 -6.00001,1.5 -3.29999,0 -5.99998,-0.675 -5.99998,-1.5 0,0.825 -2.7,1.5 -5.99999,1.5 -3.29999,0 -5.99999,-0.675 -6,-1.5 1e-5,0.825 -2.69997,1.5 -5.99997,1.5 -2.29561,0 -4.30087,-0.326644 -5.30887,-0.8032 -0.49992,-0.207428 -0.75665,-0.467103 -0.74309,-0.71577 -0.0381,0.698803 -3.224,1.65519 -6.90592,-0.593032 -0.63174,-0.385748 -1.19722,-0.826355 -1.69025,-1.298942 0,0 0,-10e-7 0,-10e-7 -2.36202,-2.265641 -2.3499,-4.597812 -1.83197,-4.823723 -0.45632,0.199037 -1.84714,-0.952527 -2.14065,-3.673233 -0.0641,-0.530477 -0.10915,-1.10375 -0.13169,-1.705496 -0.005,-0.382714 0.0154,-0.77053 0.0623,-1.160205 0.57198,-4.7588215 3.9544,-6.0612617 4.35197,-5.6681481 m 15.02931,0.02044 -2e-5,-5.3 m 12.00004,5.3 -6e-5,-5.3 m 12.00007,5.3 -8e-5,-5.3 m 12.0001,5.3 -1.2e-4,-5.3 m 8.10645,8.997513 4.49311,-2.8291495 m -4.77676,11.1669065 4.28015,3.150779 m -12.79396,0.135261 -1.2e-4,5.3 m -11.99992,-5.3 -4e-5,5.3 m -11.99999,-5.3 2e-5,5.3 m -12.00006,-5.3 1e-4,5.3 m -10.30959,-6.653771 -2.75216,4.512035 m -0.58664,-12.25368 -5.23952,-0.60086"
       transform="matrix(0.999997 0 0 1.62085 -1.58707 1.25719)"
       inkstitch:satin_method="e_stitch" />
    <path
       id="path1"
       style="stroke:#000000;stroke-width:1px;fill:none"
       transform="scale(0.264583, 0.264583)"
       d="M17.964518,18.7371 17.964518,169.6926  M19.854282,18.737099999999998 19.854282,169.6926  M17.492077000000002,94.21485 20.326723,94.21485  "
       inkstitch:satin_column="true" />
    <path
       id="path2"
       style="stroke:#000000;stroke-width:1px;fill:none"
       transform="scale(0.264583, 0.264583)"
       d="M35.950236000000004,18.7371 35.950236000000004,169.6926  M39.729764,18.737099999999998 39.729764,169.6926  M35.005354000000004,94.21485 40.674646,94.21485  "
       inkstitch:satin_column="true" />
    <path
       id="path3"
       style="fill:none;stroke:#000000;stroke-width:0.264583px"
       d="M 14.549677,4.9575181 V 44.897777 M 16.549675,4.9575181 V 44.897777 M 14.049678,24.927648 h 2.999996"
       inkstitch:satin_column="true" />
    <path
       id="path4"
       style="fill:none;stroke:#000000;stroke-width:0.264583px"
       d="M 21.175061,4.9575181 V 44.897777 M 24.175057,4.9575181 V 44.897777 M 20.425061,24.927648 h 4.499995"
       inkstitch:satin_column="true" />
    <path
       id="path5"
       style="fill:none;stroke:#000000;stroke-width:0.264583px"
       d="M 28.887919,4.9575181 V 44.897777 M 33.887913,4.9575181 V 44.897777 M 27.637921,24.927648 h 7.499991"
       inkstitch:satin_column="true" />
    <path
       id="path6"
       style="fill:none;stroke:#000000;stroke-width:1px"
       transform="scale(0.264583)"
       d="M 264.3136,18.226144 H 151.0521 M 264.3136,33.344256 H 151.0521 m 48.63074,-18.89764 8.00001,22.677168"
       inkstitch:satin_column="true"
       sodipodi:nodetypes="cccccc" />
    <path
       id="path7"
       style="fill:none;stroke:#000000;stroke-width:1px"
       transform="scale(0.264583)"
       d="M 264.3136,50.087244 H 151.052 M 264.3136,65.205356 H 151.052 m 76.63083,-18.89764 -20.00003,22.677168"
       inkstitch:satin_column="true"
       sodipodi:nodetypes="cccccc" />
    <path
       id="path8"
       style="fill:none;stroke:#000000;stroke-width:1px"
       transform="scale(0.264583)"
       d="M 264.3136,79.948344 H 151.052 M 264.3136,95.066456 H 151.052 m 28.63076,-18.89764 28.00004,22.677168"
       inkstitch:satin_column="true"
       sodipodi:nodetypes="cccccc" />
    <path
       id="path9"
       style="stroke:#000000;stroke-width:1px;fill:none"
       transform="scale(0.264583, 0.264583)"
       d="M357.3889985855614,14.750211778996182 205.4653985855614,166.67431177899618  M365.4066014144386,22.767788221003826 213.4830014144386,174.6918882210038  M279.4227978783427,88.70786766849369 291.4492021216574,100.73423233150632  "
       inkstitch:satin_column="true" />
    <path
       id="path10"
       style="fill:none;stroke:#000000;stroke-width:0.264583px"
       d="M 105.61254,3.9026535 65.416005,44.099189 M 107.73385,6.0239715 67.53732,46.220504 M 80.276968,26.72682 88.165917,26.65257"
       inkstitch:satin_column="true"
       sodipodi:nodetypes="cccccc" />
    <path
       id="path11"
       style="fill:none;stroke:#000000;stroke-width:0.264583px"
       d="M 116.66604,3.9026522 76.469407,44.099186 M 118.78735,6.0239728 78.590723,46.220507 m 20.568973,-26.479613 0.0597,6.911676"
       inkstitch:satin_column="true"
       sodipodi:nodetypes="cccccc" />
    <path
       style="fill:none;stroke:#000000;stroke-width:0.200025;stroke-dasharray:none"
       id="path2022-6"
       inkstitch:running_stitch_length_mm="8"
       inkstitch:running_stitch_tolerance_mm="8"
       inkscape:path-effect="#inkstitch-effect-pearl-path2022-6"
       inkscape:original-d="m 79.733612,97.845943 c 0.542631,12.375487 -2.320748,22.301487 8.759159,25.012337 11.079907,2.71085 26.361599,-24.484753 12.473679,-17.84857 -13.887912,6.63619 -16.188585,23.97927 -10.510743,27.83911 5.677841,3.85983 18.032793,-0.66459 19.474463,-4.6661"
       inkstitch:satin_column="true"
       class="UnoptimicedTransforms"
       d="m 78.68462,97.891938 c -0.549472,0.02409 -1.006307,3.670032 -1.041855,8.422052 -0.02714,3.6284 0.433863,6.39783 1.06874,7.90708 0.21217,0.52257 0.424395,0.78907 0.569255,0.75763 -0.411821,0.0894 -0.634127,2.76587 1.746971,5.86039 0,0 0,0 0,0 0.783744,0.94159 1.75801,1.76843 2.901668,2.43231 1.399823,0.81258 2.844709,1.25843 4.101653,1.47404 2.716253,0.49269 4.542965,-0.4009 5.156213,-0.89234 0.191987,-0.15388 0.274196,-0.28104 0.242883,-0.36907 0.128088,0.36009 2.264214,0.0433 4.795897,-1.64989 1.062389,-0.7031 2.162545,-1.5903 3.229095,-2.67109 2.07014,-2.09776 3.39117,-4.29455 4.05358,-5.82843 0.48207,-1.10025 0.60627,-1.83781 0.40525,-1.94298 0.25344,0.13259 1.0443,-0.67669 1.81445,-2.36806 0,0 0,0 0,0 0.42575,-0.81566 0.92655,-2.21171 0.65823,-4.07407 -0.1016,-0.65083 -0.44173,-1.35596 -1.08503,-2.01753 -0.70767,-0.60346 -1.47118,-0.9325 -2.19318,-0.98468 -0.20704,-0.0134 -0.41132,-0.0188 -0.61267,-0.0169 -1.94672,0.0188 -3.42873,0.7251 -4.37005,1.31988 -2.734219,1.4945 -4.082407,3.14316 -3.866802,3.4249 -0.31641,-0.41347 -3.981995,1.54826 -6.785439,5.93585 -1.69196,2.64804 -2.453514,5.2086 -2.667249,6.91485 -0.136789,1.06551 -0.04867,1.71682 0.157106,1.76039 -0.454436,-0.0962 -1.730457,2.70813 -1.205777,6.83818 0,0 0,0 0,0 0.07073,0.78619 0.251379,1.63671 0.586824,2.49232 0.624904,1.59392 1.673249,2.91838 3.017345,3.8413 3.102588,1.82228 5.418572,1.25363 5.450996,0.86157 -0.01218,0.14729 0.283307,0.32487 0.836808,0.46109 1.310837,0.33977 3.747377,0.43608 6.696228,-0.36277 0,0 0,0 0,0 0.51037,-0.13457 1.03297,-0.29435 1.56161,-0.48297 1.63034,-0.58173 3.03695,-1.33755 4.19937,-2.18194 2.54508,-1.62053 3.21303,-4.06977 2.8113,-4.2145 M 80.6827,97.804328 c 0.549472,-0.02409 1.018476,3.963772 0.965861,8.547692 -0.02785,2.4263 -0.09823,6.97926 -0.135246,7.39625 -0.04244,0.48178 -0.12111,0.7722 -0.269331,0.80437 0.411821,-0.0894 0.987299,2.10406 2.704807,3.76711 0,0 0,0 0,0 0.506574,0.55246 1.147919,1.03747 1.951553,1.47971 0.96959,0.53356 2.069323,0.94413 3.03038,1.2688 1.392536,0.51038 2.842895,0.28119 3.471929,0.3687 0.201335,0.0261 0.326545,0.0765 0.357858,0.16457 -0.114238,-0.32115 1.330048,-1.21123 3.21137,-2.79572 0.8389,-0.71323 1.708322,-1.50774 2.633912,-2.44936 1.820277,-1.85181 3.121107,-3.51484 4.155717,-4.71462 0.69753,-0.81735 1.17412,-1.28515 1.37914,-1.1779 -0.25345,-0.13259 0.0301,-1.11101 0.31418,-2.54437 0,0 0,0 0,0 0.11569,-0.77976 0.34144,-1.7238 0.1252,-2.13036 -0.0571,-0.0644 -0.0397,-0.0714 0.03,0.0552 0.12063,0.0673 0.12597,0.11794 0.0376,0.074 -0.0623,-0.0173 -0.12801,-0.0282 -0.1974,-0.033 -0.62036,-0.0434 -1.692,0.45739 -2.68617,0.79352 -2.41275,0.96743 -4.051639,1.89564 -4.291101,1.58272 0.333862,0.43628 -2.322116,2.89485 -4.630581,6.50322 -1.495806,2.33811 -2.289875,4.16024 -2.996974,5.62278 -0.405963,0.85102 -0.705359,1.35952 -0.919986,1.31408 0.454436,0.0962 0.08366,2.72062 0.717661,5.79733 0,0 0,0 0,0 0.142962,0.55691 0.305602,1.15698 0.493906,1.69706 0.357703,1.02592 0.771271,1.73286 1.356481,2.12616 1.548531,1.33504 3.517444,1.60099 3.485021,1.99304 0.0125,-0.15117 0.287028,-0.26735 0.75154,-0.37444 1.057048,-0.25699 3.098887,-0.58619 5.514963,-1.33521 0,0 0,0 0,0 0.43257,-0.13759 0.87394,-0.28455 1.31763,-0.44259 1.38515,-0.49336 2.51932,-0.99758 3.53955,-1.54641 1.96374,-1.24938 2.59049,-1.87983 2.93425,-1.75599 m -31.4938,-21.54763 4.306231,0.0409 m 2.031274,17.00428 2.118766,-3.73234 m 15.527489,-0.39265 -3.063054,-3.01709 m 6.033584,-14.38459 -0.049,4.25162 m -15.058704,6.47404 3.621567,2.31536 m -6.761255,15.77973 4.077047,-1.52721 m 13.614375,5.90421 -1.44561,-4.0548" />
    <path
       style="fill:none;stroke:#000000;stroke-width:0.200025;stroke-dasharray:none"
       id="path2022-6-2"
       inkstitch:running_stitch_length_mm="11"
       inkstitch:running_stitch_tolerance_mm="11"
       inkscape:path-effect="#inkstitch-effect-pearl-path2022-6-2"
       inkscape:original-d="m 116.99766,97.845943 c 0.54263,12.375487 -2.32075,22.301487 8.75916,25.012337 11.07991,2.71085 26.3616,-24.484753 12.47368,-17.84857 -13.88791,6.63619 -16.18859,23.97927 -10.51074,27.83911 5.67784,3.85983 18.03279,-0.66459 19.47446,-4.6661"
       inkstitch:satin_column="true"
       class="UnoptimicedTransforms"
       d="m 114.94963,97.935743 c -1.09895,0.04819 -2.0187,3.523167 -2.04572,8.359227 -0.0203,3.63797 0.69345,6.69861 1.67074,8.1625 0.34031,0.54279 0.69631,0.79768 0.98854,0.73426 -0.55044,0.11946 -1.54335,2.9584 1.26806,6.90703 0,0 0,0 0,0 0.92242,1.13617 2.06296,2.13389 3.37672,2.90861 1.61879,0.9546 3.23673,1.41763 4.6373,1.57666 3.37811,0.48384 5.393,-0.74195 5.99835,-1.52286 0.18731,-0.24386 0.24802,-0.45982 0.18539,-0.63588 0.25219,0.70895 2.72837,0.66232 5.58817,-1.07699 1.17684,-0.70079 2.38694,-1.62882 3.52669,-2.78195 2.21617,-2.24221 3.50509,-4.66293 4.00251,-6.38534 0.37205,-1.2429 0.32464,-2.11293 -0.0817,-2.32551 0.5069,0.26518 1.5514,-0.45954 2.5646,-2.27991 0,0 0,0 0,0 0.58738,-0.8421 1.2125,-2.44717 0.92475,-5.04593 -0.12552,-0.94669 -0.64109,-1.99555 -1.64256,-3.05388 -1.12619,-0.94122 -2.2654,-1.45533 -3.30857,-1.514026 -0.27941,-0.0114 -0.55296,-0.01419 -0.82029,-0.0089 -2.60408,0.05202 -4.27656,0.839119 -5.21199,1.583059 -2.89564,1.76142 -4.10721,3.75461 -3.65466,4.34599 -0.63488,-0.82965 -4.80772,0.86827 -7.86287,5.65217 -1.81694,2.84504 -2.50843,5.69073 -2.50239,7.56088 -9.4e-4,1.17302 0.27842,1.89519 0.69566,1.98354 -0.7565,-0.16018 -2.65277,2.55086 -2.1675,7.35861 0,0 0,0 0,0 0.0336,0.89776 0.22528,1.87965 0.63328,2.88995 0.75833,1.87777 2.12442,3.51128 3.84778,4.69887 3.87962,2.06589 6.36913,1.07994 6.43398,0.29584 -0.0246,0.29753 0.28153,0.61997 0.87945,0.87886 1.38411,0.63408 4.12511,0.93132 7.28686,0.12343 0,0 0,0 0,0 0.54915,-0.13301 1.11258,-0.29927 1.6836,-0.50316 1.75738,-0.62748 3.29132,-1.50594 4.52927,-2.4997 1.25964,-0.80231 2.2264,-2.14972 2.69875,-3.34515 0.47228,-1.19524 0.38359,-1.97881 0.0511,-2.0986 M 118.94579,97.760523 c 1.23696,-0.05424 2.03182,4.040447 1.96972,8.610507 -0.0415,3.053 -0.351,6.04224 -0.73724,7.14084 -0.16855,0.46112 -0.39507,0.76403 -0.68863,0.82774 0.82365,-0.17875 1.79801,1.77316 3.18373,2.72047 0,0 0,0 0,0 0.36835,0.358 0.84251,0.67188 1.47649,1.00341 0.69845,0.36524 1.73494,0.81427 2.49475,1.16618 0.73068,0.51922 1.99286,0.62223 2.62979,0.99922 0.20601,0.11605 0.35271,0.25533 0.41534,0.43138 -0.23097,-0.64932 0.85854,-1.85094 2.41911,-3.36862 0.79069,-0.78313 1.41768,-1.40164 2.33632,-2.3385 1.57838,-1.60969 3.10303,-3.24412 4.20678,-4.15771 0.80234,-0.67743 1.46098,-1.00729 1.86609,-0.79536 -0.53317,-0.27893 -0.47729,-1.31748 -0.43595,-2.63253 0,0 0,0 0,0 -0.0429,-0.84617 0.0524,-1.39549 -0.14132,-1.15851 -0.0305,0.23623 0.15697,0.5634 0.58755,1.09155 0.54816,0.41009 0.91117,0.63572 1.15296,0.60336 0.0101,-0.0193 0.0136,-0.0328 0.0102,-0.041 -0.0332,-0.0804 -0.76817,0.30907 -1.84424,0.53034 -2.2418,0.70441 -4.01619,1.29809 -4.50325,0.66163 0.63918,0.83525 -1.50497,3.58799 -3.55315,6.78691 -1.27887,1.99738 -2.31375,3.83648 -3.16184,4.97673 -0.54197,0.74845 -1.03561,1.18048 -1.45853,1.09093 0.90887,0.19245 0.99072,2.72688 1.67938,5.2769 0,0 0,0 0,0 0.18683,0.46601 0.32496,0.89339 0.44745,1.29943 0.22364,0.74142 0.32073,1.14062 0.52605,1.2686 0.7715,1.09142 2.56687,1.77467 2.50203,2.55877 0.0247,-0.29886 0.28901,-0.565 0.70891,-0.79221 0.77997,-0.44191 2.92521,-1.15093 4.92432,-1.82141 0,0 0,0 0,0 0.39397,-0.1392 0.7941,-0.27955 1.19564,-0.4224 1.30399,-0.46391 2.21908,-0.81288 3.20965,-1.22865 0.86461,-0.54982 1.60835,-0.5929 1.94656,-0.60724 0.32601,-0.0138 0.76872,-0.0205 1.04916,0.0805 m -32.55589,-21.22771 8.31203,0.0789 m -0.9571,18.72124 4.08971,-7.20428 m 15.96669,2.74662 -5.9124,-5.82369 m 7.48104,-14.958794 -0.0945,8.206624 m -16.72038,3.41962 6.99046,4.4692 m -10.34201,15.41314 7.86966,-2.94787 m 12.39044,8.5005 -2.79035,-7.82672" />
    <path
       style="fill:none;stroke:#000000;stroke-width:0.200025"
       id="path2022-6-2-6"
       inkstitch:running_stitch_length_mm="14"
       inkstitch:running_stitch_tolerance_mm="14"
       inkscape:path-effect="#inkstitch-effect-pearl-path2022-6-2-6"
       inkscape:original-d="m 154.26172,97.845943 c 0.54263,12.375487 -2.32075,22.301487 8.75916,25.012337 11.07991,2.71085 26.3616,-24.484753 12.47368,-17.84857 -13.88791,6.63619 -16.18859,23.97927 -10.51074,27.83911 5.67784,3.85983 18.03279,-0.66459 19.47446,-4.6661"
       inkstitch:satin_column="true"
       class="UnoptimicedTransforms"
       d="m 153.21273,97.891938 c -1.49815,0.06569 -3.01826,3.660702 -3.04476,8.403032 -0.0202,3.61795 0.9315,6.72044 2.24195,8.06611 0.46761,0.50542 0.95828,0.71325 1.39895,0.61762 -0.9443,0.20493 -2.35586,3.02167 0.34042,7.0735 0,0 0,0 0,0 0.88069,1.16018 2.00932,2.18065 3.32274,2.95517 1.62129,0.95607 3.25182,1.38067 4.66277,1.47255 3.40678,0.35921 5.31544,-1.18949 5.74747,-2.1129 0.14823,-0.32113 0.16972,-0.61948 0.076,-0.88299 0.38061,1.07 2.86059,1.38615 5.85586,-0.2259 1.21443,-0.63875 2.45478,-1.53937 3.59381,-2.69178 2.21884,-2.2449 3.3877,-4.76163 3.67341,-6.58813 0.21526,-1.30626 -0.0257,-2.26557 -0.63926,-2.58658 0.76034,0.39778 2.01764,-0.17076 3.19292,-1.90317 0,0 0,0 0,0 0.6949,-0.83865 1.37571,-2.34275 1.13334,-4.94784 -0.11082,-0.94234 -0.61149,-1.99079 -1.60447,-3.05225 -1.11723,-0.9449 -2.254,-1.46459 -3.29705,-1.525505 -0.27928,-0.01215 -0.55283,-0.01531 -0.82016,-0.01 -2.61815,0.0523 -4.28017,0.892559 -5.16887,1.673299 -2.83018,1.91643 -3.7828,4.14464 -3.09076,5.04898 -0.95312,-1.2455 -5.36837,0.002 -8.46989,4.85894 -1.81772,2.84628 -2.36093,5.77185 -2.09783,7.67559 0.164,1.20443 0.64181,1.94309 1.27214,2.07655 -1.19961,-0.254 -3.48991,2.28518 -3.11672,7.14577 0,0 0,0 0,0 0.0131,0.89989 0.19315,1.884 0.60146,2.89507 0.75826,1.8776 2.16256,3.49819 3.90631,4.61277 4.08623,1.98313 6.38557,0.25952 6.45833,-0.62023 -0.0371,0.44923 0.23696,0.91077 0.81299,1.30177 1.32098,0.9259 4.0876,1.437 7.266,0.68734 0,0 0,0 0,0 0.5518,-0.12286 1.11699,-0.28391 1.68804,-0.48781 1.75539,-0.62677 3.27592,-1.55488 4.45448,-2.61671 1.20112,-0.88172 2.07248,-2.30704 2.37903,-3.52103 0.30965,-1.22626 0.0159,-1.96052 -0.49522,-2.14465 M 155.21081,97.804328 c 1.78377,-0.07821 3.03131,3.963182 2.96876,8.566702 -0.0424,3.12024 -0.58825,5.97318 -1.30846,7.23723 -0.29346,0.49797 -0.65941,0.84897 -1.09902,0.94438 1.23546,-0.26812 2.5973,1.68035 4.11135,2.554 0,0 0,0 0,0 0.41168,0.33481 0.89457,0.62431 1.53048,0.95685 0.77228,0.40385 1.64458,0.81696 2.46928,1.27029 0.73664,0.64751 2.11621,0.97189 2.88067,1.58925 0.24496,0.19302 0.43069,0.41407 0.52475,0.6785 -0.34746,-0.9768 0.71437,-2.60833 2.15141,-4.21971 0.64925,-0.73926 1.45368,-1.59698 2.2692,-2.42867 1.59109,-1.62266 3.20504,-3.12976 4.53588,-3.95492 0.94944,-0.5983 1.81803,-0.85113 2.42365,-0.53429 -0.78522,-0.41079 -0.94257,-1.60963 -1.06428,-3.00926 0,0 0,0 0,0 -0.12813,-0.8789 -0.10653,-1.49457 -0.34992,-1.25661 -0.0454,0.23173 0.12757,0.55878 0.54946,1.08991 0.53916,0.41372 0.89981,0.64506 1.14145,0.61485 0.01,-0.0185 0.0135,-0.0317 0.0101,-0.0399 -0.0332,-0.0804 -0.78407,0.27278 -1.88736,0.44009 -2.34942,0.57179 -4.34876,0.89741 -5.06715,-0.0413 0.95748,1.2512 -0.94439,4.45375 -2.94613,7.58014 -1.22173,1.90814 -2.53078,3.8287 -3.5664,4.86202 -0.69958,0.71362 -1.403,1.13174 -2.03501,0.99792 1.41123,0.29881 1.84564,3.00463 2.62859,5.48974 0,0 0,10e-6 0,10e-6 0.20702,0.46252 0.35743,0.89037 0.47928,1.2943 0.22438,0.74386 0.28192,1.15143 0.46752,1.3547 0.71686,1.24794 2.57495,2.29868 2.47767,3.47484 0.037,-0.44758 0.33384,-0.85877 0.77538,-1.21512 0.91007,-0.75042 2.89575,-1.63991 4.94517,-2.38532 0,0 0,0 0,0 0.39235,-0.14973 0.78872,-0.29456 1.19121,-0.43775 1.07335,-0.38186 2.46711,-0.84671 3.28444,-1.11164 0.90503,-0.47135 1.78038,-0.43464 2.26628,-0.43137 0.44929,0.003 1.17578,-0.0246 1.59546,0.12656 m -33.4967,-21.56665 8.31203,0.0789 m -0.9571,18.72124 4.08971,-7.20428 m 15.96669,2.74662 -5.9124,-5.82369 m 7.48104,-14.958794 -0.0945,8.206624 m -16.72038,3.41962 6.99046,4.4692 m -10.34201,15.41314 7.86966,-2.94787 m 12.39044,8.5005 -2.79035,-7.82672" />
    <path
       id="autosatin1"
       style="stroke:#000000;stroke-width:1px;fill:none"
       d="M 15.8963 369.92 L 16.1447 378.533 L 16.1884 386.875 L 16.0437 402.858 L 16.0472 410.448 L 16.2323 417.75 L 16.7018 424.746 L 17.5587 431.375 L 18.1802 434.619 L 18.9381 437.741 L 19.8547 440.772 L 20.9463 443.706 L 22.2289 446.535 L 23.7177 449.252 L 25.4259 451.845 L 27.3647 454.302 L 29.5421 456.611 L 31.9641 458.761 L 34.6345 460.744 L 37.5569 462.554 L 40.7358 464.186 L 44.177 465.641 L 47.8881 466.918 L 51.9028 468.025 L 54.1548 468.479 L 56.4451 468.753 L 58.7424 468.848 L 61.1031 468.772 L 65.6124 468.159 L 70.1425 466.963 L 74.6045 465.257 L 78.9847 463.099 L 83.2707 460.543 L 87.4488 457.636 L 91.5044 454.425 L 95.4212 450.953 L 99.1818 447.264 L 102.767 443.4 L 106.158 439.404 L 109.334 435.317 L 112.274 431.18 L 114.959 427.035 L 117.365 422.92 L 119.473 418.872 L 121.26 414.926 L 122.702 411.112 L 123.774 407.452 L 124.441 403.956 L 124.649 400.619 L 124.299 397.431 L 123.278 394.585 L 122.333 393.106 L 121.227 391.889 L 119.911 390.872 L 118.427 390.09 L 116.823 389.552 L 115.131 389.244 L 113.565 389.157 M 23.4522 369.702 L 23.7032 378.404 L 23.7476 386.889 L 23.6028 402.89 L 23.6062 410.35 L 23.7849 417.401 L 24.2283 424.008 L 25.0259 430.178 L 25.5695 433.015 L 26.2343 435.754 L 27.0216 438.357 L 27.9394 440.824 L 28.9955 443.154 L 30.1989 445.35 L 31.5602 447.416 L 33.0926 449.358 L 34.8116 451.181 L 36.7357 452.889 L 38.8848 454.485 L 41.2794 455.968 L 43.9389 457.334 L 46.8817 458.578 L 50.1241 459.694 L 53.6567 460.667 L 55.3528 461.009 L 57.0516 461.212 L 58.7782 461.284 L 60.4707 461.23 L 64.1323 460.732 L 67.8208 459.758 L 71.5783 458.321 L 75.3731 456.452 L 79.1712 454.187 L 82.9396 451.565 L 86.6472 448.629 L 90.264 445.423 L 93.7614 441.992 L 97.1119 438.381 L 100.289 434.637 L 103.266 430.806 L 106.018 426.934 L 108.52 423.071 L 110.747 419.264 L 112.673 415.565 L 114.275 412.027 L 115.53 408.709 L 116.417 405.677 L 116.926 403.009 L 117.064 400.797 L 116.883 399.142 L 116.451 397.938 L 116.309 397.716 L 116.08 397.464 L 115.808 397.254 L 115.443 397.062 L 114.934 396.891 L 114.242 396.765 L 113.147 396.704 M 14.2711 389.904 L 25.6092 390.007 M 14.1901 398.859 L 25.5282 398.961 M 14.2084 412.485 L 25.5434 412.198 M 15.0194 426.472 L 26.2644 425.018 M 18.6629 442.988 L 29.2896 439.034 M 24.9299 454.267 L 33.8309 447.243 M 32.4473 461.474 L 39.2067 452.37 M 41.4048 466.521 L 45.8204 456.077 M 63.9409 470.294 L 62.4132 459.058 M 73.8026 467.586 L 69.7532 456.996 M 82.6527 463.112 L 76.8448 453.374 M 90.5955 457.555 L 83.5565 448.666 M 99.3891 449.708 L 91.4486 441.614 M 105.803 442.742 L 97.1576 435.407 M 111.643 435.33 L 102.402 428.76 M 118.025 425.535 L 108.237 419.811"
       inkstitch:satin_column="true"
       transform="scale(0.264583, 0.264583)"
       inkscape:label="AutoSatin 1" />
    <path
       id="autosatin2"
       style="stroke:#000000;stroke-width:1px;fill:none"
       d="M 113.164 389.156 L 111.446 389.243 L 107.583 389.95 L 103.197 391.36 L 98.3093 393.467 L 93.3019 396.045 L 88.5713 398.846 L 84.1011 401.86 L 79.8899 405.07 L 75.9359 408.457 L 72.237 412.004 L 68.7909 415.693 L 65.595 419.505 L 62.6465 423.424 L 59.9428 427.431 L 57.4807 431.511 L 55.2574 435.645 L 53.2699 439.818 L 51.5153 444.012 L 49.9906 448.211 L 48.6933 452.4 L 47.6207 456.561 L 46.7703 460.679 L 46.1401 464.74 L 45.7279 468.727 L 45.5322 472.625 L 45.5522 476.42 L 45.7873 480.097 L 46.238 483.641 L 46.9058 487.039 L 47.7937 490.275 L 48.9061 493.334 L 50.2494 496.199 L 51.8311 498.85 L 53.6592 501.262 L 55.7396 503.405 L 58.0354 505.212 L 60.4549 506.694 L 62.9696 507.936 L 65.5942 508.97 L 68.313 509.807 L 71.1126 510.459 L 74.0308 510.946 L 79.8701 511.413 L 85.9119 511.301 L 92.0128 510.668 L 98.0883 509.572 L 104.053 508.063 L 109.819 506.192 L 115.3 504.004 L 120.411 501.542 L 125.066 498.84 L 129.184 495.925 L 132.625 492.851 L 134.155 491.156 L 135.451 489.438 L 136.534 487.638 L 137.259 485.999 M 113.548 396.705 L 112.322 396.768 L 109.427 397.297 L 105.856 398.445 L 101.539 400.306 L 96.9606 402.663 L 92.6135 405.237 L 88.5091 408.005 L 84.6439 410.951 L 81.0147 414.06 L 77.6186 417.317 L 74.4531 420.705 L 71.5156 424.209 L 68.8039 427.813 L 66.3159 431.501 L 64.0494 435.256 L 62.0023 439.063 L 60.1728 442.904 L 58.5586 446.762 L 57.1577 450.621 L 55.9677 454.462 L 54.9864 458.269 L 54.2112 462.024 L 53.6392 465.709 L 53.2674 469.305 L 53.0923 472.795 L 53.1099 476.158 L 53.3158 479.378 L 53.7045 482.434 L 54.2692 485.307 L 55.0024 487.98 L 55.8942 490.432 L 56.9337 492.65 L 58.108 494.618 L 59.4043 496.328 L 60.8117 497.777 L 62.362 498.998 L 64.11 500.068 L 66.0341 501.019 L 68.0955 501.831 L 70.2852 502.505 L 72.5926 503.043 L 74.9554 503.436 L 80.1025 503.849 L 85.4511 503.75 L 90.9498 503.179 L 96.4881 502.179 L 101.957 500.796 L 107.249 499.079 L 112.255 497.081 L 116.868 494.858 L 120.977 492.474 L 124.468 490.002 L 127.286 487.485 L 128.32 486.339 L 129.178 485.202 L 129.813 484.146 L 130.347 482.94 M 93.9148 393.604 L 99.1041 403.685 M 85.6441 398.54 L 91.9835 407.941 M 76.2172 405.728 L 83.594 414.339 M 69.3025 412.377 L 77.5877 420.118 M 63.1076 419.668 L 72.1679 426.485 M 56.5238 429.439 L 66.2315 435.298 M 52.1026 437.874 L 62.3392 442.75 M 47.7444 449.076 L 58.5753 452.431 M 45.3363 458.279 L 56.4406 460.572 M 43.7595 470.245 L 55.0838 470.813 M 44.1792 482.431 L 55.4272 481.001 M 46.5413 492.361 L 57.1973 488.486 M 55.8027 505.86 L 62.8168 496.951 M 77.7761 513.141 L 78.6814 501.839 M 89.9997 512.777 L 88.8299 501.499 M 101.814 510.579 L 99.0336 499.586 M 113.178 506.886 L 108.975 496.355 M 124 501.644 L 118.309 491.837 M 132.206 495.76 L 124.653 487.303"
       inkstitch:satin_column="true"
       transform="scale(0.264583, 0.264583)"
       inkscape:label="AutoSatin 2" />
    <g
       id="command_group1"
       inkscape:label="Ink/Stitch Command: Trim thread after sewing this object"
       transform="scale(0.264583, 0.264583)">
      <path
         id="command_connector1"
         d="m 83.426309,367.42354 2.794988,31.97241"
         style="fill:none;stroke:#000000;stroke-width:1px;stroke-opacity:0.5"
         inkscape:connection-start="#command_use4986"
         inkscape:connection-end="#autosatin2"
         inkscape:label="connector"
         inkscape:connector-type="polyline"
         inkscape:connector-curvature="0" />
      <use
         id="command_use4986"
         xlink:href="#inkstitch_trim"
         height="100%"
         width="100%"
         x="83.42372908948383"
         y="367.3877085700314"
         inkscape:label="command marker" />
    </g>
    <path
       id="autosatin3"
       style="stroke:#000000;stroke-width:1px;fill:none"
       d="M 151.07 370.083 L 151.316 378.629 L 151.359 386.864 L 151.215 402.833 L 151.218 410.521 L 151.408 418.012 L 151.897 425.3 L 152.799 432.272 L 153.479 435.822 L 154.306 439.232 L 155.32 442.583 L 156.542 445.867 L 157.994 449.072 L 159.697 452.179 L 161.666 455.166 L 163.909 458.01 L 166.43 460.683 L 169.226 463.165 L 172.287 465.438 L 175.605 467.493 L 179.174 469.326 L 182.989 470.939 L 187.052 472.337 L 191.428 473.543 L 194.097 474.081 L 196.831 474.408 L 199.556 474.521 L 202.418 474.429 L 207.563 473.73 L 212.724 472.366 L 217.715 470.458 L 222.534 468.085 L 227.186 465.31 L 231.671 462.19 L 235.988 458.772 L 240.13 455.1 L 244.087 451.217 L 247.849 447.164 L 251.4 442.979 L 254.725 438.7 L 257.807 434.365 L 260.628 430.008 L 263.17 425.662 L 265.414 421.352 L 267.339 417.1 L 268.923 412.914 L 270.132 408.782 L 270.917 404.666 L 271.178 400.486 L 270.702 396.147 L 269.239 392.069 L 267.693 389.649 L 265.928 387.707 L 263.828 386.085 L 261.505 384.861 L 259.081 384.047 L 256.639 383.603 L 254.72 383.496 M 169.96 369.539 L 170.213 378.307 L 170.257 386.9 L 170.113 402.915 L 170.116 410.277 L 170.29 417.139 L 170.714 423.454 L 171.467 429.28 L 171.952 431.813 L 172.547 434.264 L 173.237 436.547 L 174.025 438.662 L 174.911 440.618 L 175.9 442.423 L 177.001 444.094 L 178.229 445.65 L 179.604 447.108 L 181.155 448.485 L 182.913 449.791 L 184.912 451.028 L 187.182 452.194 L 189.751 453.28 L 192.642 454.275 L 195.812 455.149 L 197.092 455.407 L 198.347 455.557 L 199.646 455.611 L 200.837 455.573 L 203.863 455.161 L 206.92 454.354 L 210.149 453.119 L 213.505 451.466 L 216.937 449.419 L 220.398 447.011 L 223.845 444.282 L 227.237 441.276 L 230.537 438.038 L 233.711 434.617 L 236.727 431.062 L 239.556 427.422 L 242.167 423.75 L 244.532 420.097 L 246.623 416.522 L 248.413 413.084 L 249.876 409.853 L 250.99 406.907 L 251.74 404.347 L 252.131 402.299 M 146.608 389.827 L 174.953 390.084 M 146.527 398.782 L 174.872 399.038 M 146.548 412.701 L 174.885 411.982 M 147.426 427.562 L 175.539 423.928 M 151.533 445.954 L 178.1 436.068 M 159.094 459.535 L 181.347 441.975 M 168.218 468.301 L 185.117 445.543 M 178.934 474.353 L 189.972 448.245 M 205.927 478.72 L 202.108 450.632 M 217.68 475.529 L 207.557 449.052 M 227.849 470.415 L 213.329 446.07 M 236.715 464.222 L 219.118 441.999 M 246.185 455.778 L 226.333 435.543 M 253.128 448.244 L 231.514 429.905 M 259.414 440.257 L 236.311 423.833 M 266.206 429.828 L 241.737 415.518"
       inkstitch:satin_column="true"
       transform="scale(0.264583, 0.264583)"
       inkscape:label="AutoSatin 1" />
    <path
       id="autosatin4"
       style="stroke:#000000;stroke-width:1px;fill:none"
       d="M 253.715 383.494 L 251.629 383.6 L 247.04 384.44 L 242.043 386.046 L 236.727 388.338 L 231.398 391.081 L 226.38 394.052 L 221.635 397.252 L 217.165 400.66 L 212.967 404.255 L 209.041 408.02 L 205.385 411.934 L 201.995 415.977 L 198.869 420.132 L 196.003 424.379 L 193.394 428.702 L 191.039 433.082 L 188.933 437.504 L 187.073 441.95 L 185.456 446.404 L 184.078 450.852 L 182.937 455.279 L 182.03 459.671 L 181.356 464.013 L 180.914 468.293 L 180.703 472.498 L 180.724 476.616 L 180.981 480.635 L 181.479 484.546 L 182.224 488.337 L 183.228 491.996 L 184.505 495.511 L 186.076 498.862 L 187.964 502.025 L 190.191 504.963 L 192.776 507.625 L 195.631 509.873 L 198.554 511.663 L 201.512 513.124 L 204.559 514.324 L 207.674 515.284 L 210.843 516.022 L 214.178 516.577 L 220.536 517.087 L 227.098 516.965 L 233.65 516.286 L 240.129 515.116 L 246.465 513.513 L 252.587 511.527 L 258.425 509.197 L 263.908 506.554 L 268.973 503.615 L 273.562 500.366 L 277.47 496.876 L 279.372 494.769 L 280.996 492.615 L 282.415 490.257 L 283.284 488.294 M 254.677 402.367 L 253.819 402.411 L 251.651 402.807 L 248.691 403.759 L 244.802 405.436 L 240.545 407.627 L 236.486 410.031 L 232.655 412.613 L 229.05 415.362 L 225.664 418.262 L 222.495 421.301 L 219.54 424.464 L 216.797 427.737 L 214.262 431.105 L 211.936 434.553 L 209.816 438.065 L 207.901 441.626 L 206.19 445.218 L 204.682 448.825 L 203.373 452.428 L 202.264 456.01 L 201.351 459.551 L 200.632 463.033 L 200.104 466.436 L 199.762 469.739 L 199.603 472.922 L 199.619 475.962 L 199.803 478.839 L 200.145 481.529 L 200.632 484.009 L 201.249 486.258 L 201.976 488.256 L 202.787 489.987 L 203.656 491.443 L 204.554 492.627 L 205.456 493.557 L 206.447 494.337 L 207.692 495.099 L 209.173 495.831 L 210.812 496.477 L 212.605 497.029 L 214.543 497.48 L 216.489 497.804 L 221.117 498.175 L 225.946 498.086 L 230.993 497.562 L 236.128 496.635 L 241.226 495.346 L 246.161 493.744 L 250.812 491.888 L 255.051 489.845 L 258.75 487.699 L 261.771 485.56 L 264.122 483.46 L 264.784 482.726 L 265.313 482.025 L 265.613 481.528 L 266.003 480.646 M 230.863 386.043 L 243.836 411.246 M 221.73 391.49 L 237.578 414.992 M 211.525 399.27 L 229.967 420.797 M 203.929 406.571 L 224.642 425.923 M 197.153 414.555 L 219.804 431.598 M 190.083 425.045 L 214.353 439.692 M 185.266 434.217 L 210.857 446.407 M 180.462 446.56 L 207.539 454.947 M 177.848 456.56 L 205.609 462.291 M 176.107 469.819 L 204.417 471.239 M 176.584 483.504 L 204.704 479.928 M 179.39 495.267 L 206.03 485.58 M 191.383 512.541 L 208.918 490.269 M 217.938 521.618 L 220.201 493.362 M 231.718 521.236 L 228.793 493.041 M 244.739 518.823 L 237.789 491.342 M 257.17 514.784 L 246.663 488.457 M 269.108 508.999 L 254.881 484.482 M 278.71 502.103 L 259.829 480.96"
       inkstitch:satin_column="true"
       transform="scale(0.264583, 0.264583)"
       inkscape:label="AutoSatin 2" />
    <g
       id="command_group2"
       inkscape:label="Ink/Stitch Command: Trim thread after sewing this object"
       transform="scale(0.264583, 0.264583)">
      <path
         id="command_connector2"
         d="m 229.30094,358.90657 0.21758,33.28721"
         style="fill:none;stroke:#000000;stroke-width:1px;stroke-opacity:0.5"
         inkscape:connection-start="#command_use365"
         inkscape:connection-end="#autosatin4"
         inkscape:label="connector"
         inkscape:connector-type="polyline"
         inkscape:connector-curvature="0" />
      <use
         id="command_use365"
         xlink:href="#inkstitch_trim"
         height="100%"
         width="100%"
         x="229.29835348845518"
         y="358.870717360677"
         inkscape:label="command marker" />
    </g>
  </g>
</svg>
