prologues:=3;
outputformat:="svg";
outputtemplate:=("%j" & "." & outputformat);
verbatimtex
%&latex
\documentclass{minimal}
\begin{document}
etex
beginfig(0);
z1=(0cm,0cm);
z2=(0cm,2cm);
z3=(0.25cm,1.3cm);
z4=(0.8cm,2cm);
z5=(1.6cm,1.3cm);
z6=(1.6cm,0cm);
z7=(1.8cm,1.3cm);
z8=(2.4cm,2cm);
z9=(3.2cm,1.3cm);
z10=(3.2cm,0cm);
pickup pencircle scaled 1;
draw z1--z2;
draw z3{dir 90}..z4..{dir 270}z5--z6 withcolor black;
draw z7{dir 90}..z8..{dir 270}z9--z10 withcolor black;
endfig;
end
