This is MetaPost, version 2.01 (TeX Live 2022/dev/Debian) (kpathsea version 6.3.4/dev)  18 OCT 2023 14:40
**111.mp
(/usr/share/texlive/texmf-dist/metapost/base/mpost.mp
(/usr/share/texlive/texmf-dist/metapost/base/plain.mp
Preloading the plain mem file, version 1.005) ) (./111.mp [0] )
1 output file written: 111.svg

