prologues:=3;
outputformat:="svg";
outputtemplate:=("%j" & "." & outputformat);
verbatimtex
%&latex
\documentclass{minimal}
\begin{document}
etex
beginfig(0);
pickup pencircle scaled 1;
z1=(0cm,2cm);
z2=(0cm,-0.8cm);
z3=(0cm,1cm);
z5=(0.9cm,2cm);
z7=(0.9cm,0cm);
z9=(1.8cm,1cm);
draw z1--z2 withcolor black;
draw z3..z7..z9..z5..cycle withcolor black;
endfig;
end
