prologues:=3;
outputformat:="svg";
outputtemplate:=("%j" & "." & outputformat);
verbatimtex
%&latex
\documentclass{minimal}
\begin{document}
etex
beginfig(0);
pickup pencircle scaled 1;
z1=(1.6cm,1.55cm);
z2=(1.4cm,1.7cm);
z3=(0.3cm,1.3cm);
z4=(1.6cm,0.5cm);
z5=(0.6cm,0cm);
z6=(0.2cm,0.25cm);
z7=(0.3cm,1.55cm);
z8=(1.6cm,0.25cm);
draw z1..z2..{dir 230}z7 withcolor black;
draw z3{dir 300}..{dir 300}z4 withcolor black;
draw z8{dir 230}..z5..z6 withcolor black;
endfig;
end
