prologues:=3;
outputformat:="svg";
outputtemplate:=("%j" & "." & outputformat);
verbatimtex
%&latex
\documentclass{minimal}
\begin{document}
etex
beginfig(0);
pickup pencircle scaled 1;
z1=(-0.2cm,1.7cm);
z2=(-0.2cm,1.1cm);
z3=(0.9cm,0cm);
z4=(2cm,0.9cm);
z5=(-0.2cm, 2.1cm);
z6=(0.9cm,3cm);
z7=(2cm,2.1cm);
draw z1--z2..z3..z4 withcolor black;
draw z5..z6..z7 withcolor black;
endfig;
end
