prologues:=3;
outputformat:="svg";
outputtemplate:=("%j" & "." & outputformat);
verbatimtex
%&latex
\documentclass{minimal}
\begin{document}
etex
beginfig(0);
pickup pencircle scaled 1;
z1=(0cm,3cm);
z2=(-0.3cm,0cm);
z5=(2.1cm,0cm);
z6=(1.8cm, 3cm);
z3=(0.4cm, 3cm);
z4=(0.9cm, 2cm);
z7=(1.4cm, 3cm);
draw z1--z2 withcolor black;
draw z6--z5 withcolor black;
draw z3--z4--z7 withcolor black;
endfig;
end
