<!-- Created by MetaPost 2.000 on 2020.07.05:0852 --><svg xmlns="http://www.w3.org/2000/svg" xmlns:xlink="http://www.w3.org/1999/xlink" version="1.1" width="350" height="550" viewBox="0 0 350 550">
<!-- Original BoundingBox: -9.669290 -4.000671 72.031480 89.039350 -->
  <path d="M3.330710 40.811035L3.330710 57.818905C3.442530 74.993218,17.337492 88.888180,34.511805 89.000000C50.698513 89.105390,64.259710 76.777029,65.692900 60.653550" style="stroke:rgb(0.000000%,0.000000%,0.000000%); stroke-width: 0.000000;stroke-linecap: round;stroke-linejoin: round;stroke-miterlimit: 10.000000;fill: none;"/>
  <path d="M3.330710 29.472455C6.328827 14.631776,19.371315 3.960650,34.511805 3.960650C49.652295 3.960650,62.694783 14.631776,65.692900 29.472455" style="stroke:rgb(0.000000%,0.000000%,0.000000%); stroke-width: 0.000000;stroke-linecap: round;stroke-linejoin: round;stroke-miterlimit: 10.000000;fill: none;"/>
  <path d="M37.346450 57.818905L77.031480 57.818905" style="stroke:rgb(0.000000%,0.000000%,0.000000%); stroke-width: 0.000000;stroke-linecap: round;stroke-linejoin: round;stroke-miterlimit: 10.000000;fill: none;"/>
</svg>