<!-- Created by MetaPost 2.000 on 2020.07.05:0912 --><svg xmlns="http://www.w3.org/2000/svg" xmlns:xlink="http://www.w3.org/1999/xlink" version="1.1" width="350" height="550" viewBox="0 0 350 550">
<!-- Original BoundingBox: -6.834645 -4.000000 57.858255 89.039350 -->
  <path d="M59.858255 3.960650L31.511805 60.653550L31.511805 89.000000" style="stroke:rgb(0.000000%,0.000000%,0.000000%); stroke-width: 0.000000;stroke-linecap: round;stroke-linejoin: round;stroke-miterlimit: 10.000000;fill: none;"/>
  <path d="M3.165355 3.960650L28.677160 49.314970" style="stroke:rgb(0.000000%,0.000000%,0.000000%); stroke-width: 0.000000;stroke-linecap: round;stroke-linejoin: round;stroke-miterlimit: 10.000000;fill: none;"/>
</svg>