<!-- Created by MetaPost 2.000 on 2020.07.04:1002 --><svg xmlns="http://www.w3.org/2000/svg" xmlns:xlink="http://www.w3.org/1999/xlink" version="1.1" width="350" height="550" viewBox="0 0 350 550">
<!-- Original BoundingBox: -4.000000 -27.270510 55.023610 60.692900 -->
  <path d="M4.000000 77.007870C27.378972 90.505726,55.023610 80.971962,55.023610 60.000000L55.023610 3.307100" style="stroke:none;"/>
  <path d="M4.000000 31.653550C4.000000 16.487860,14.876899 3.307100,29.511805 3.307100C44.146711 3.307100,55.023610 16.487860,55.023610 31.653550C55.023610 46.819240,44.146711 60.000000,29.511805 60.000000C14.876899 60.000000,4.000000 46.819240,4.000000 31.653550Z" style="stroke:none;"/>
</svg>