<!-- Created by MetaPost 2.000 on 2020.07.05:0906 --><svg xmlns="http://www.w3.org/2000/svg" xmlns:xlink="http://www.w3.org/1999/xlink" version="1.1" width="350" height="550" viewBox="0 0 350 550">
<!-- Original BoundingBox: -9.669290 -4.000000 60.692900 89.039350 -->
  <path d="M40.181095 89.000000L65.692900 3.960650" style="stroke:none;"/>
  <path d="M3.330710 3.960650L28.842515 89.000000" style="stroke:none;"/>
</svg>