<!-- Created by MetaPost 2.000 on 2020.07.05:0613 --><svg xmlns="http://www.w3.org/2000/svg" xmlns:xlink="http://www.w3.org/1999/xlink" version="1.1" width="350" height="550" viewBox="0 0 350 550">
<!-- Original BoundingBox: -4.000000 -4.000000 55.023610 89.039350 -->
  <path d="M4.000000 3.960650L4.000000 89.000000" style="stroke:none;"/>
  <path d="M15.338580 3.960650L55.023610 3.960650" style="stroke:none;"/>
  <path d="M15.338580 46.480325L55.023610 46.480325" style="stroke:none;"/>
  <path d="M55.023610 89.000000L15.338580 89.000000" style="stroke:none;"/>
</svg>