<!-- Created by MetaPost 2.000 on 2020.07.05:1127 --><svg xmlns="http://www.w3.org/2000/svg" xmlns:xlink="http://www.w3.org/1999/xlink" version="1.1" width="350" height="550" viewBox="0 0 350 550">
<!-- Original BoundingBox: -4.000000 -4.000000 55.254397 60.692900 -->
  <path d="M40.850385 3.307100C21.875701 3.307100,4.000000 14.208644,4.000000 31.653550L4.000000 60.000000L55.023610 60.000000" style="stroke:none;"/>
  <path d="M40.850385 3.307100C50.325876 3.307100,56.553414 13.036180,55.023610 23.149615C53.864143 30.814776,48.315477 37.322840,40.850385 37.322840C33.385293 37.322840,27.836627 30.814776,26.677160 23.149615C25.147356 13.036180,31.374894 3.307100,40.850385 3.307100Z" style="stroke:none;"/>
</svg>