<!-- Created by MetaPost 2.000 on 2020.07.05:0643 --><svg xmlns="http://www.w3.org/2000/svg" xmlns:xlink="http://www.w3.org/1999/xlink" version="1.1" width="350" height="550" viewBox="0 0 350 550">
<!-- Original BoundingBox: -4.000000 -4.000000 55.023610 89.039350 -->
  <path d="M12.503935 3.960650L4.000000 89.000000" style="stroke:none;"/>
  <path d="M46.519675 3.960650L55.023610 89.000000" style="stroke:none;"/>
  <path d="M23.842515 3.960650L29.511805 26.637810L35.181095 3.960650" style="stroke:none;"/>
</svg>