<?xml version="1.0"?>
<!-- Created by MetaPost 2.000 on 2020.07.11:0440 -->
<svg version="1.1" xmlns="http://www.w3.org/2000/svg" xmlns:xlink="http://www.w3.org/1999/xlink" width="59.023610" height="93.039350" viewBox="0 0 59.023610 93.039350">
<!-- Original BoundingBox: -4.000000 -4.000000 55.023610 89.039350 -->
  <path d="M55.023610 89.000000L4.000000 89.000000C4.000000 61.877729,41.406912 59.106329,53.606288 37.976390" style="stroke:rgb(0.000000%,0.000000%,0.000000%); stroke-width: 8.000000;stroke-linecap: round;stroke-linejoin: round;stroke-miterlimit: 10.000000;fill: none;"></path>
  <path d="M9.669290 26.637810C9.669290 14.113560,19.822200 3.960650,32.346450 3.960650C44.870700 3.960650,55.023610 14.113560,55.023610 26.637810" style="stroke:rgb(0.000000%,0.000000%,0.000000%); stroke-width: 8.000000;stroke-linecap: round;stroke-linejoin: round;stroke-miterlimit: 10.000000;fill: none;"></path>
</svg>
