<?xml version="1.0"?>
<!-- Created by MetaPost 2.000 on 2020.07.11:0507 -->
<svg version="1.1" xmlns="http://www.w3.org/2000/svg" xmlns:xlink="http://www.w3.org/1999/xlink" width="59.035340" height="93.039350" viewBox="0 0 59.035340 93.039350">
<!-- Original BoundingBox: -4.007939 -4.000000 55.027400 89.039350 -->
  <path d="M29.511805 3.960650C14.036391 12.572863,4.316464 28.772742,4.000000 46.480325C3.693643 63.622385,12.270870 79.704685,26.677160 89.000000" style="stroke:rgb(0.000000%,0.000000%,0.000000%); stroke-width: 8.000000;stroke-linecap: round;stroke-linejoin: round;stroke-miterlimit: 10.000000;fill: none;"></path>
  <path d="M35.181095 89.000000C46.970763 86.218954,55.230207 75.599669,55.023610 63.488195C54.783974 49.439877,43.509587 38.055974,29.511805 37.976390C15.388898 37.896094,3.919704 49.365288,4.000000 63.488195" style="stroke:rgb(0.000000%,0.000000%,0.000000%); stroke-width: 8.000000;stroke-linecap: round;stroke-linejoin: round;stroke-miterlimit: 10.000000;fill: none;"></path>
</svg>
