<?xml version="1.0"?>
<!-- Created by MetaPost 2.000 on 2020.07.11:0522 -->
<svg version="1.1" xmlns="http://www.w3.org/2000/svg" xmlns:xlink="http://www.w3.org/1999/xlink" width="59.025764" height="93.067680" viewBox="0 0 59.025764 93.067680">
<!-- Original BoundingBox: -4.002154 -4.025765 55.023610 89.041916 -->
  <path d="M29.511805 46.480325C41.342742 47.532495,51.661345 38.503717,52.188965 26.637810C52.749197 14.038455,42.263820 3.771754,29.511805 3.960650C17.064728 4.145029,7.019024 14.190733,6.834645 26.637810" style="stroke:rgb(0.000000%,0.000000%,0.000000%); stroke-width: 8.000000;stroke-linecap: round;stroke-linejoin: round;stroke-miterlimit: 10.000000;fill: none;"></path>
  <path d="M8.251967 35.141745C17.731705 51.561131,45.543873 41.399519,55.023610 57.818905" style="stroke:rgb(0.000000%,0.000000%,0.000000%); stroke-width: 8.000000;stroke-linecap: round;stroke-linejoin: round;stroke-miterlimit: 10.000000;fill: none;"></path>
  <path d="M55.023610 66.322840C52.964711 78.970578,42.313705 88.438139,29.511805 89.000000C15.804880 89.601582,3.813191 79.598482,4.000000 66.322840C4.186565 53.064583,16.615571 43.397578,29.511805 46.480325" style="stroke:rgb(0.000000%,0.000000%,0.000000%); stroke-width: 8.000000;stroke-linecap: round;stroke-linejoin: round;stroke-miterlimit: 10.000000;fill: none;"></path>
</svg>
