<?xml version="1.0"?>
<!-- Created by MetaPost 2.000 on 2020.07.05:0625 -->
<svg version="1.1" xmlns="http://www.w3.org/2000/svg" xmlns:xlink="http://www.w3.org/1999/xlink" width="59.023610" height="93.039350" viewBox="0 0 59.023610 93.039350">
<!-- Original BoundingBox: -4.000000 -4.000000 55.023610 89.039350 -->
  <path d="M4.000000 32.307100L4.000000 71.992130C5.514649 81.779095,13.939038 89.000000,23.842515 89.000000C33.745992 89.000000,42.170381 81.779095,43.685030 71.992130L43.685030 52.149615" style="stroke:rgb(0.000000%,0.000000%,0.000000%); stroke-width: 8.000000;stroke-linecap: round;stroke-linejoin: round;stroke-miterlimit: 10.000000;fill: none;"></path>
  <path d="M4.000000 20.968520C5.514649 11.181555,13.939038 3.960650,23.842515 3.960650C33.745992 3.960650,42.170381 11.181555,43.685030 20.968520" style="stroke:rgb(0.000000%,0.000000%,0.000000%); stroke-width: 8.000000;stroke-linecap: round;stroke-linejoin: round;stroke-miterlimit: 10.000000;fill: none;"></path>
  <path d="M32.346450 52.149615L55.023610 52.149615" style="stroke:rgb(0.000000%,0.000000%,0.000000%); stroke-width: 8.000000;stroke-linecap: round;stroke-linejoin: round;stroke-miterlimit: 10.000000;fill: none;"></path>
</svg>
