<?xml version="1.0"?>
<!-- Created by MetaPost 2.000 on 2020.07.04:1021 -->
<svg version="1.1" xmlns="http://www.w3.org/2000/svg" xmlns:xlink="http://www.w3.org/1999/xlink" width="59.023610" height="64.954070" viewBox="0 0 59.023610 64.954070">
<!-- Original BoundingBox: -4.000000 -4.000000 55.023610 60.954070 -->
  <path d="M4.000000 60.000000L4.000000 3.307100" style="stroke:rgb(0.000000%,0.000000%,0.000000%); stroke-width: 8.000000;stroke-linecap: round;stroke-linejoin: round;stroke-miterlimit: 10.000000;fill: none;"></path>
  <path d="M11.086613 25.984260C11.086612 14.839405,18.643424 4.998888,29.511805 3.307100C43.026450 1.203391,55.023610 12.085160,55.023610 25.984260L55.023610 60.000000" style="stroke:rgb(0.000000%,0.000000%,0.000000%); stroke-width: 8.000000;stroke-linecap: round;stroke-linejoin: round;stroke-miterlimit: 10.000000;fill: none;"></path>
</svg>
