<?xml version="1.0"?>
<!-- Created by MetaPost 2.000 on 2020.07.05:0825 -->
<svg version="1.1" xmlns="http://www.w3.org/2000/svg" xmlns:xlink="http://www.w3.org/1999/xlink" width="59.023610" height="93.039350" viewBox="0 0 59.023610 93.039350">
<!-- Original BoundingBox: -4.000000 -4.000000 55.023610 89.039350 -->
  <path d="M55.023610 3.960650L29.511805 60.653550L29.511805 89.000000" style="stroke:rgb(0.000000%,0.000000%,0.000000%); stroke-width: 8.000000;stroke-linecap: round;stroke-linejoin: round;stroke-miterlimit: 10.000000;fill: none;"></path>
  <path d="M4.000000 3.960650L26.677160 49.314970" style="stroke:rgb(0.000000%,0.000000%,0.000000%); stroke-width: 8.000000;stroke-linecap: round;stroke-linejoin: round;stroke-miterlimit: 10.000000;fill: none;"></path>
</svg>
